Listing DBTree.cpp...

/*
 * DBTree.cpp
 *
 * Created on: Mar 27, 2017
 *     Author: Britney Reese
 *      Class: CS-222-02-17w
 */

#include "Database.h"
#include "DRT.h"
#include "Leaf.h"
#include "KeyValue.h"
#include "DBTree.h"
using namespace std;

DBTree::DBTree(){
	root = NULL;
}

//Find a leaf, it's previous, and next, and pack it into a DRT
DRT * DBTree::search (string key) {
	KeyValue * searchTerm = new KeyValue(key);
	Leaf ** results = new Leaf * [3];
	for (int i = 0; i < 3; i++) results[i] = NULL;
	if (key != "" && root) results = root->searchSet(searchTerm, results);
	else if (root) {
		results[2] = root->getLeftDown();
		results[0] = root->getRightDown();
	}
	delete searchTerm;
	Leaf * result = results[1];
	Leaf * prev = results[0];
	Leaf * next = results[2];
	delete[] results;
	return buildDRT(prev, result, next);
}

//Find a leaf, it's previous, and next.
//If key not found, create a new copy.
//Else, if key found, either modify it's data or delete it.
DRT * DBTree::modify (string key, string data) {
	KeyValue * searchTerm = new KeyValue(key);
	Leaf ** results = new Leaf * [3];
	for (int i = 0; i < 3; i++) results[i] = NULL;
	if (key != "" && root) results = root->searchSet(searchTerm, results);
	else if (root) {
		results[2] = root->getLeftDown();
		results[0] = root->getRightDown();
	}
	delete searchTerm;
	Leaf * result = results[1];
	Leaf * prev = results[0];
	Leaf * next = results[2];
	DRT * dirt = buildDRT(prev, result, next);
	delete[] results;
	if (result) {
		if (data != "") {
			((KeyValue *)result->getItem())->setValue(data);
		} else {
			remove(result);
			result = NULL;
		}
	}
	else if (key != "" && data != "") add(key, data);
	return dirt;
}

//remove a leaf recursively
void DBTree::remove(Leaf * dleaf) {
	if (root) root = root->remove(dleaf);
}

//add a leaf recursively
void DBTree::add(string key, string data) {
	if (root) root->add(new Leaf(NULL, new KeyValue(key, data)));
	else root = new Leaf(NULL, new KeyValue(key, data));
}

//create a DRT from the leaves in the result
DRT * DBTree::buildDRT(Leaf * prev, Leaf * result, Leaf * next) {
	string pr = "", res = "", nxt = "";
	if (prev) {
		pr = ((KeyValue *)prev->getItem())->getKey();
	}
	if (result) {
		res = ((KeyValue *)result->getItem())->getValue();
	}
	if (next) {
		nxt = ((KeyValue *)next->getItem())->getKey();
	}
	return new DRT(res, nxt, pr);
}

DBTree::~DBTree() {
	if (root) root->destroy();
	else delete root;
}



Listing DBTree.h...

/*
 * DBTree.h
 *
 * Created on: Mar 22, 2017
 *     Author: Britney Reese
 *      Class: CS-222-02-17w
 */

#ifndef DBTREE_H_
#define DBTREE_H_

#include "Database.h"
#include "DRT.h"
#include "Leaf.h"
#include "KeyValue.h"
using namespace std;

class DBTree;
class DBTree : public Database {
protected:
	Leaf * root;
public:
	DBTree();
	DRT * search (string key);
	DRT * modify (string key, string data);
	virtual void remove(Leaf * dleaf);
	virtual void add(string key, string data);
	DRT * buildDRT(Leaf * prev, Leaf * result, Leaf * next);
	~DBTree();
	void printTree();
};

#endif /* DBTREE_H_ */


Listing DRT.cpp...

//Code Provided by Andy Poe for Data Structures of Winter 2017

#include <string>
#include "DRT.h"
#include <iostream>
#include <cstdlib>
using namespace std;

DRT::DRT (string d, string n, string p) {
 data = d; next = n; prev = p;
}

string DRT::getdata () {return data;}

string DRT::getnext () {return next;}

string DRT::getprev () {return prev;}


Listing DRT.h...

//Code Provided by Andy Poe for Data Structures of Winter 2017

#ifndef _DRT_
#define _DRT_
#include <string>
using namespace std;

class DRT {

 private:
  string data;
  string next;
  string prev;

 public:

  DRT (string d, string n, string p);
  string getdata ();
  string getnext ();
  string getprev ();

};



#endif

/* DRT.h is the Database Return Type.  It contains three fields:

   The data from the location in the database we're examining.

   The next key field in sequential order after the one we're examining.

   The prev key field in sequential order before the one we're examining.

*/


Listing Database.h...

//Code Provided by Andy Poe for Data Structures of Winter 2017

#ifndef _DATABASE_
#define _DATABASE_

#include <string>
#include "DRT.h"
using namespace std;

class DRT;
class Database {

 public:

  virtual DRT * search (string key) = 0;

  virtual DRT * modify (string key, string data) = 0;

  virtual ~Database() {};

};

#endif

/*

Both search and modify return DRT's (Database Return Types).  Neither
method EVER returns a value of NULL; they always return DRT's.  However,
some of the fields in the returned DRT might be "".

search (string key):

if key is "", then set the following fields in the DRT:
  data = ""
  next = the first key in the database (or "" if empty)
  prev = the last key in the database (or "" if empty)

if key is not "" but is not present in the database:
  data = ""
  next = the first key in the database following key (or "")
  prev = the last key in the database preceding key (or "")

if key is present in the database:
  data = the data corresponding to key
  next = the first key in the database following key (or "")
  prev = the last key in the database preceding key (or "")

modify (string key, string data):

At all times, modify returns the DRT that search would have returned
JUST PRIOR to the modification made by modify.  Discussed below are
the modifications made by modify.

if key is "", do nothing.

if key is not "" but not present in the database and data is "", do
nothing.

if key is not "" but not present in the database and data is not "",
add <key,data> to the database.

if key is present in the database and data is "", remove key from the
database.

if key is present in the database and data is not "", replace the data
associated with key with the new data.

*/


Listing Item.h...

//Code Provided by Andy Poe for Data Structures of Winter 2017

#ifndef _ITEM_
#define _ITEM_

#include <iostream>
#include <string>
#include <cstdlib>
using namespace std;

class Item {
public:
	virtual int compare(Item * other) = 0;
	virtual ~Item(){};
};

#endif


Listing KeyValue.cpp...

/*
 * KeyValue.cpp
 *
 * Created on: Mar 27, 2017
 *     Author: Britney Reese
 *      Class: CS-222-02-17w
 */

#include "KeyValue.h"

#include <iostream>
#include <string>
#include <cstdlib>
#include "Item.h"
using namespace std;


KeyValue::KeyValue(string key, string value) {
	this->key = key;
	this->value = value;
}

KeyValue::KeyValue(string key) {
	this->key = key;
	this->value = "";
}

//only works when comparing another keyvalue
int KeyValue::compare(Item * other) {
	try {
		if (key == ((KeyValue *)other)->getKey()) return 0;
		else if (key < ((KeyValue *)other)->getKey()) return -1;
		return 1;
	} catch (...) {
		cout << "Could not compare Items." << endl;
		return 0;
	}
}

string KeyValue::getValue() {
	return this->value;
}

void KeyValue::setValue(string s) {
	this->value = s;
}

string KeyValue::getKey() {
	return this->key;
}


Listing KeyValue.h...

/*
 * KeyValue.h
 *
 * Created on: Mar 27, 2017
 *     Author: Britney Reese
 *      Class: CS-222-02-17w
 */

#ifndef KEYVALUE_H_
#define KEYVALUE_H_

#include <iostream>
#include <string>
#include <cstdlib>
#include "Item.h"
using namespace std;

class Item;
class KeyValue : public Item {
private:
	string key;
	string value;
public:
	KeyValue(string key, string value);
	KeyValue(string key);
	virtual int compare(Item * other);
	string getValue();
	void setValue(string s);
	string getKey();
};

#endif /* KEYVALUE_H_ */


Listing Leaf.cpp...

/*
 * Leaf.cpp
 *
 * Created on: Mar 27, 2017
 *     Author: Britney Reese
 *      Class: CS-222-02-17w
 */

#include <string>
#include "Leaf.h"
#include "Item.h"
using namespace std;

Leaf::Leaf(Leaf * parent, Item * item) {
	this->parent = parent;
	this->left = NULL;
	this->right = NULL;
	this->item = item;
}

Leaf::Leaf(Leaf * parent, Item * item, Leaf * left, Leaf * right) {
	this->parent = parent;
	this->left = left;
	this->right = right;
	this->item = item;
}

Item * Leaf::getItem() {
	return item;
}

void Leaf::setItem(Item * item) {
	this->item = item;
}

Leaf * Leaf::getParent() {
	return parent;
}

void Leaf::setParent(Leaf* parent) {
	this->parent = parent;
}

Leaf * Leaf::getLeft() {
	return left;
}

void Leaf::setLeft(Leaf * left) {
	this->left = left;
}

Leaf * Leaf::getRight() {
	return right;
}

void Leaf::setRight(Leaf * right) {
	this->right = right;
}

//add a leaf to the tree
void Leaf::add(Leaf * nleaf) {
	if (item->compare(nleaf->getItem()) > 0) {
		if (left) {
			left->add(nleaf);
		} else {
			nleaf->setParent(this);
			left = nleaf;
		}
	} else {
		if (right) {
			right->add(nleaf);
		} else {
			nleaf->setParent(this);
			right = nleaf;
		}
	}
}

//remove a leaf from the tree
Leaf* Leaf::remove(Leaf * dleaf) {
	if (item->compare(dleaf->getItem()) == 0) {
		if (!left && !right) {
			delete this;
			return NULL;
		}
		if (left && !right) {
			left->setParent(parent);
			Leaf * temp = left;
			delete this;
			return temp;
		}
		if (right && !left) {
			right->setParent(parent);
			Leaf * temp = right;
			delete this;
			return temp;
		}
		if (right && left) {
			Leaf * temp = right->getLeftDown();
			if (right != temp) {
				temp->getParent()->setLeft(temp->getRight());
				if (temp->getRight()) temp->getRight()->setParent(temp->getParent());
				temp->setRight(right);
				right->setParent(temp);
			}
			temp->setParent(parent);
			temp->setLeft(left);
			left->setParent(temp);
			delete this;
			return temp;
		}
		return NULL;
	} else {
		if (item->compare(dleaf->getItem()) > 0 && left) left = left->remove(dleaf);
		else if (right) right = right->remove(dleaf);
	}
	return this;
}

void Leaf::destroy() {
	if (left) left->destroy();
	if (right) right->destroy();
	delete this;
}

//search for justs the leaf
Leaf * Leaf::search(Item * s) {
	if (item->compare(s) == 0) {
		return this;
	}
	if (item->compare(s) > 0 && left) {
		return left->search(s);
	}
	if (item->compare(s) < 0 && right) {
		return right->search(s);
	}
	return NULL;
}

//search for a leaf, it's previous, and it's next
Leaf ** Leaf::searchSet(Item * s, Leaf ** leaves) {
	if (item->compare(s) == 0) {
		leaves[1] = this;
		if (left) {
			leaves[0] = left->getRightDown();
		}
		if (right) {
			leaves[2] = right->getLeftDown();
		}
		return leaves;
	}
	if (item->compare(s) > 0) {
		leaves[2] = this;
		if (left) return left->searchSet(s, leaves);
	}
	if (item->compare(s) < 0) {
		leaves[0] = this;
		if (right) return right->searchSet(s, leaves);
	}
	return leaves;
}

//get the leaf all the way down on the left
Leaf * Leaf::getLeftDown() {
	if (left) {
		return left->getLeftDown();
	}
	return this;
}

//get the leaf all the way down on the right
Leaf * Leaf::getRightDown() {
	if (right) {
		return right->getRightDown();
	}
	return this;
}

Leaf::~Leaf() {
	delete item;
}


Listing Leaf.h...

/*
 * Leaf.h
 *
 * Created on: Mar 27, 2017
 *     Author: Britney Reese
 *      Class: CS-222-02-17w
 */

#ifndef LEAF_H_
#define LEAF_H_
#include "Item.h"
using namespace std;

class Leaf;
class Leaf {
protected:
	Leaf * left;
	Leaf * right;
	Leaf * parent;
	Item * item;

public:
	Leaf(Leaf * parent, Item * item);
	Leaf(Leaf * parent, Item * item, Leaf * left, Leaf * right);
	Item * getItem();
	void setItem(Item * item);
	Leaf * getParent();
	void setParent(Leaf* parent);
	Leaf * getLeft();
	void setLeft(Leaf * left);
	Leaf * getRight();
	void setRight(Leaf * Right);
	virtual void add(Leaf * nleaf);
	virtual Leaf * remove(Leaf * dleaf);
	void destroy();
	Leaf * search(Item * s);
	Leaf ** searchSet(Item * s, Leaf ** leaves);
	Leaf * getLeftDown();
	Leaf * getRightDown();
	virtual ~Leaf();
	string printTree();
};

#endif /* LEAF_H_ */


Listing RBDBTree.cpp...

/*
 * RBDBTree.cpp
 *
 * Created on: Apr 14, 2017
 *     Author: Britney Reese
 *      Class: CS-222-02-17w
 */

#include "Database.h"
#include "DBTree.h"
#include "RBDBTree.h"
#include "DRT.h"
#include "Leaf.h"
#include "RBLeaf.h"
#include "KeyValue.h"
using namespace std;

void RBDBTree::remove(Leaf * dleaf){
	if (root) root = root->remove(dleaf);
}
void RBDBTree::add(string key, string data) {
	if (root) root->add(new RBLeaf(NULL, new KeyValue(key, data)));
	else root = new RBLeaf(NULL, new KeyValue(key, data));
}


Listing RBDBTree.h...

/*
 * RBDBTree.h
 *
 * Created on: Apr 14, 2017
 *     Author: Britney Reese
 *      Class: CS-222-02-17w
 */

#ifndef RBDBTREE_H_
#define RBDBTREE_H_

#include "Database.h"
#include "DBTree.h"
#include "DRT.h"
#include "Leaf.h"
#include "RBLeaf.h"
#include "KeyValue.h"
using namespace std;

class DBTree;
class RBDBTree;
class RBDBTree : public DBTree {
protected:
	bool red, black;
public:
	RBDBTree() : DBTree() { root = NULL; red = true; black = false;}
	virtual void remove(Leaf * dleaf);
	virtual void add(string key, string data);
};

#endif /* RBDBTREE_H_ */


Listing RBLeaf.cpp...

/*
 * RBLeaf.cpp
 *
 * Created on: Apr 14, 2017
 *     Author: Britney Reese
 *      Class: CS-222-02-17w
 */

#include <string>
#include "RBLeaf.h"
#include "Leaf.h"
#include "Item.h"
//debug
#include "KeyValue.h"
using namespace std;

void RBLeaf::add(Leaf * nleaf){
	RBLeaf * newleaf = (RBLeaf *) nleaf;
	if (item->compare(newleaf->getItem()) > 0) {
		if (left) {
			left->add(newleaf);
			newleaf->addAdjust();
		} else {
			newleaf->setParent(this);
			left = newleaf;
			newleaf->addAdjust();
		}
	} else {
		if (right) {
			right->add(newleaf);
			newleaf->addAdjust();
		} else {
			newleaf->setParent(this);
			right = newleaf;
			newleaf->addAdjust();
		}
	}
}

void RBLeaf::addAdjust() {
	RBLeaf * x = this;
	RBLeaf * p = (RBLeaf *)x->getParent();
	if (x->getParent() == NULL) {
		x->setColor(false);
		return;
	}
	if (!p->getColor()) {
		return;
	}
}

Leaf * RBLeaf::remove(Leaf * dleaf){
	if (item->compare(dleaf->getItem()) == 0) {
		if (!left && !right) {
			delete this;
			return NULL;
		}
		if (left && !right) {
			left->setParent(parent);
			Leaf * temp = left;
			delete this;
			return temp;
		}
		if (right && !left) {
			right->setParent(parent);
			Leaf * temp = right;
			delete this;
			return temp;
		}
		if (right && left) {
			Leaf * temp = right->getLeftDown();
			if (right != temp) {
				temp->getParent()->setLeft(temp->getRight());
				if (temp->getRight()) temp->getRight()->setParent(temp->getParent());
				temp->setRight(right);
				right->setParent(temp);
			}
			temp->setParent(parent);
			temp->setLeft(left);
			left->setParent(temp);
			delete this;
			return temp;
		}
		return NULL;
	} else {
		if (item->compare(dleaf->getItem()) > 0 && left) left = left->remove(dleaf);
		else if (right) right = right->remove(dleaf);
	}
	return this;
}

bool RBLeaf::getColor() {
	return color;
}

void RBLeaf::setColor(bool color) {
	this->color = color;
}

bool color(RBLeaf * leaf) {
	if (!leaf) return false;
	return leaf->getColor();
}

Leaf * RBLeaf::getSibling() {
	if (!parent) return NULL;
	if (this == parent->getRight()) return parent->getLeft();
	return parent->getRight();
}

Leaf * RBLeaf::getDirectChild(){
	if (!parent) return NULL;
	if (this == parent->getRight()) return right;
	return left;
}

Leaf * RBLeaf::getZigZagChild(){
	if (!parent) return NULL;
	if (this == parent->getRight()) return left;
	return right;
}

void RBLeaf::rotate() {
	if (!parent) cout << "This should never get called." << endl;
	RBLeaf * x = this;
	bool xColor = color;
	RBLeaf * p = (RBLeaf *)parent;
	bool pColor = p->getColor();
	RBLeaf * gp = (RBLeaf *)p->getParent();
	RBLeaf * z = (RBLeaf *)getZigZagChild();

	x->setColor(pColor);
	p->setColor(xColor);

	x->setParent(gp);
	if(gp == NULL) {
		//make root point to x;
	} else if (gp->getRight() == p) {
		gp->setRight(x);
	} else {
		gp->setLeft(x);
	}

	p->setParent(x);

	if (p->getRight() == x) {
		x->setLeft(p);
		p->setRight(z);
	} else {
		x->setRight(p);
		p->setLeft(z);
	}

	if (z != NULL) {
		z->setParent(p);
	}
}



Listing RBLeaf.h...

/*
 * RBLeaf.h
 *
 * Created on: Apr 14, 2017
 *     Author: Britney Reese
 *      Class: CS-222-02-17w
 */

#ifndef RBLEAF_H_
#define RBLEAF_H_

#include "Item.h"
#include "Leaf.h"
using namespace std;

class Leaf;
class RBLeaf;
class RBLeaf : public Leaf {
private:
	bool color;

public:
	RBLeaf (Leaf * parent, Item * item): Leaf(parent, item) {
		this->parent = parent;
		this->left = NULL;
		this->right = NULL;
		this->item = item;
		this->color = true;
	}

	RBLeaf(Leaf * parent, Item * item, Leaf * left, Leaf * right) : Leaf(parent, item, left, right){
		this->parent = parent;
		this->left = left;
		this->right = right;
		this->item = item;
		this->color = true;
	}
	virtual void add(Leaf * nleaf);
	void addAdjust();
	virtual Leaf * remove(Leaf * dleaf);
	bool getColor();
	void setColor(bool color);
	Leaf * getSibling();
	Leaf * getDirectChild();
	Leaf * getDriectGrandchild();
	Leaf * getZigZagChild();
	Leaf * getZigZagGrandchild();
	void rotate();
};

#endif /* RBLEAF_H_ */


Listing main.cpp...

/*
 * main.cpp
 *
 * Created on: Mar 28, 2017
 *     Author: Britney Reese
 *      Class: CS-222-02-17w
 */

#include "main.h"
#include "Database.h"
#include "DBTree.h"
#include "RBDBTree.h"
#include <iostream>
#include <fstream>
#include <string>
#include <cstdlib>
using namespace std;

//handle input, check input validity, and delegate tasks
int main(int argc, char **argv) {
	cout << "Database active. Enter commands." << endl;
	string command = "", arg1 = "", arg2 = "";
	Database * DB = new RBDBTree();
	fstream cin("file.in");
	while (true) {
		command = "", arg1 = "", arg2 = "";
		getline(cin, command);
		cout << command;
		getCommand(command, arg1, arg2);
		//cout << "Command: " << command << "\tArg1: " << arg1 << "\tArg2: " << arg2 << endl;
		if (command == "ADD") {
			if (arg1 != "" && arg2 != "") DB->modify(arg1, arg2);
			else cout << "Not enough arguments." << endl;
		} else if (command == "PRINT") {
			print(DB);
		} else if (command == "RPRINT") {
			rprint(DB);
		} else if (command == "REMOVE") {
			if (arg1 == "") cout << "Argument needed." << endl;
			else if (false && arg2 != "") cout << "Only one argument." << endl;
			else {
				DRT * answer = DB->modify(arg1, "");
				if (answer->getdata() == "") cout << "Student '" << arg1 << "' not found." << endl;
				delete answer;
			}
		} else if (command == "LOOKUP") {
			if (arg2 != "") cout << "Only one argument allowed." << endl;
			else {
				DRT * answer = DB->search(arg1);
				if (answer->getdata() != "") {
					cout << "Student: " << arg1 << "\tGrade: " << answer->getdata() << endl;
				} else {
					cout << "Student '" << arg1 << "' not found.";
					if (answer->getprev() != "") cout << " The student before is '" << answer->getprev() << "'";
					else cout << " There is no student before";
					cout << " and";
					if (answer->getnext() != "") cout << " the student after is '" << answer->getnext() << "'";
					else cout << " there is no student after";
					cout << "." << endl;
				}
				delete answer;
			}
		} else if (command == "EXIT") {
			cout << "Goodbye." << endl;
			break;
		} else {
			cout << "I do not understand that command." << endl;
		}
	}
	delete DB;
	return 0;
	cin.close();
}

//parse the string for the commands and arguments
void getCommand(string &command, string &arg1, string &arg2) {
	string s = command;
	command = "";
	int var = 0;
	int quotecount = 0;
	for (int i = 0; i < (int)(s.length()); i++) {
		if (var == 0) {
			if (s[i] == ' ' || s[i] == '\r' || s[i] == '\n' || (int)s[i] == 13) {
				var = 1;
			} else {
				command += s[i];
			}
		} else if (var == 1) {
			if (s[i] == '\"' || s[i] == ' ' || s[i] == '\r' || s[i] == '\n' || (int)s[i] == 13) {
				if (s[i] == '\"') quotecount++;
				if (quotecount == 1 && s[i] == ' ') arg1 += s[i];
			} else {
				arg1 += s[i];
			}
			if (quotecount == 2) {
				var++;
				quotecount = 0;
			}
		} else {
			if (s[i] == '\"' || s[i] == ' ' || s[i] == '\r' || s[i] == '\n' || (int)s[i] == 13) {
				if (s[i] == '\"') quotecount++;
				if (quotecount == 1 && s[i] == ' ') arg2 += s[i];
			} else {
				arg2 += s[i];
			}
		}
	}
}

//print by searching for a record and finding it's next
void print (Database * DB) {
	DRT * res = DB->search("");
	do {
		if (res->getnext() != "") cout << "Student: '" << res->getnext() << "'";
		DRT * newres = DB->search(res->getnext());
		delete res;
		res = newres;
		if (res->getdata() != "") if (res->getdata() != "") cout << "\tGrade: '" << res->getdata() << "'" << endl;
	} while (res->getnext() != "");
	delete res;
}

//print by searching for a record and finding it's previous
void rprint (Database * DB) {
	DRT * res = DB->search("");
	do {
		if (res->getprev() != "") cout << "Student: '" << res->getprev() << "'";
		DRT * newres = DB->search(res->getprev());
		delete res;
		res = newres;
		if (res->getdata() != "") cout << "\tGrade: '" << res->getdata() << "'" << endl;
	} while (res->getprev() != "");
	delete res;
}


Listing main.h...

/*
 * main.h
 *
 * Created on: Mar 28, 2017
 *     Author: Britney Reese
 *      Class: CS-222-02-17w
 */

#ifndef MAIN_H_
#define MAIN_H_


#include <iostream>
#include <string>
#include <cstdlib>
#include <string>
#include "Database.h"
using namespace std;

void getCommand(string &command, string &arg1, string &arg2);
void print (Database * DB);
void piss (Database * DB);
void rprint (Database * DB);

#endif /* MAIN_H_ */


Microsoft Windows [Version 6.1.7601]
Copyright (c) 2009 Microsoft Corporation.  All rights reserved.

C:\Users\apoe\Desktop\Grading Folder>cppcompileall PG5.exe
Microsoft Windows [Version 6.1.7601]
Copyright (c) 2009 Microsoft Corporation.  All rights reserved.

C:\Users\apoe\Desktop\Grading Folder>"C:\Program Files (x86)\Microsoft Visual Studio 14.0\VC\vcvarsall.bat" x86

C:\Users\apoe\Desktop\Grading Folder>cl /Tp "DBTree.cpp" /Tp "DRT.cpp" /Tp "KeyValue.cpp" /Tp "Leaf.cpp" /Tp "main.cpp" /Tp "RBDBTree.cpp" /Tp "RBLeaf.cpp" /O2 /EHsc /W2 /link /OUT:PG5.exe
DBTree.cpp
DRT.cpp
KeyValue.cpp
Leaf.cpp
main.cpp
RBDBTree.cpp
RBLeaf.cpp
Generating Code...
Microsoft (R) Incremental Linker Version 14.00.24215.1
Copyright (C) Microsoft Corporation.  All rights reserved.

/out:DBTree.exe 
/OUT:PG5.exe 
DBTree.obj 
DRT.obj 
KeyValue.obj 
Leaf.obj 
main.obj 
RBDBTree.obj 
RBLeaf.obj 

C:\Users\apoe\Desktop\Grading Folder>Microsoft (R) C/C++ Optimizing Compiler Version 19.00.24215.1 for x86
Copyright (C) Microsoft Corporation.  All rights reserved.


C:\Users\apoe\Desktop\Grading Folder>PG5.exe < "C:\Grading\Classes\CS222-02-17W\PG5\PG5-1.in
Database active. Enter commands.
PRINTRPRINTLOOKUP "Adams, Al"Student 'Adams, Al' not found. There is no student before and there is no student after.
REMOVE "Adams, Al"Student 'Adams, Al' not found.
PRINTRPRINTADD "Adams, Al" "A"PRINTStudent: 'Adams, Al'	Grade: 'A'
RPRINTStudent: 'Adams, Al'	Grade: 'A'
ADD "Dastardly, Dick" "D"ADD "Fredericks, Frank" "F"ADD "Cross, Christopher" "C"ADD "Balczak, Boris" "B"ADD "Cross, Christopher" "C+"PRINTStudent: 'Adams, Al'	Grade: 'A'
Student: 'Balczak, Boris'	Grade: 'B'
Student: 'Cross, Christopher'	Grade: 'C+'
Student: 'Dastardly, Dick'	Grade: 'D'
Student: 'Fredericks, Frank'	Grade: 'F'
RPRINTStudent: 'Fredericks, Frank'	Grade: 'F'
Student: 'Dastardly, Dick'	Grade: 'D'
Student: 'Cross, Christopher'	Grade: 'C+'
Student: 'Balczak, Boris'	Grade: 'B'
Student: 'Adams, Al'	Grade: 'A'
REMOVE "Adams, Al"REMOVE "Dastardly, Dick"REMOVE "Cross, Christopher"REMOVE "Balczak, Boris"REMOVE "Fredericks, Frank"PRINTRPRINTADD "OUPMMFNQFR, UGWJEUMTIW" "A"ADD "HBOTFWBQAW, QYVXWHAFYI" "B"ADD "OYRIRWZPWU, RVGJRHSYFD" "A"ADD "YENMQDUYVX, OBJDEROHEB" "B"ADD "SSEJOVBMVK, TZBTDRTIXL" "C"ADD "AXICTRVNVK, EFPVDGPPUI" "B"ADD "VJQJEXDZNY, DAKCSLFCCH" "D"ADD "IXGDBVDZVB, HUDUIWNLZN" "D"ADD "BEHQNRJNGX, TBOLBHBXGC" "C"ADD "XOKWVKJAKV, EOTPBIAIKB" "A"ADD "WRYNQQOUCC, DJJSAXTQRE" "A"ADD "PFFSLAFIEQ, COGHAODVUA" "A"ADD "YCUGDFFSHI, XZCCUSRKWD" "B"ADD "KYOCRYICCS, QIGAPSASLT" "C"ADD "GTWEHXYYCW, EOZODMEKOC" "D"ADD "DGONLMMXMW, JEIEQCQUFI" "D"ADD "JAATKIEYXA, PFBHPBMDZY" "D"ADD "KCUEWJWFQE, SVEJEUHYOA" "B"ADD "VGOLQDIVFK, PMQXLDAXPE" "C"ADD "CZAKDUDEDZ, RNKFIEDXOF" "D"ADD "CRKGDRMLYY, CCNINWIWHA" "B"ADD "IDESGQJZUD, PYMWOHDHGO" "D"ADD "YGIEVUATPR, KJTVTNBYKC" "B"ADD "EVMCSJDMXZ, HMBROPKRMV" "B"ADD "JMFIZRZJET, FYIAYJGYVO" "A"ADD "QPDRCLIXPV, TWFPKHZZWJ" "D"ADD "YYKNEJIWNJ, KPBLWLGPFC" "C"ADD "DNACYKHXTO, UHJTINBSHZ" "D"ADD "AWCTFPVFAM, GEFXZQPVZY" "A"ADD "FUDAXVCBKC, SCCNJGMMVH" "D"ADD "XCZBTROONY, HNTZJYXGGC" "B"ADD "UJLSHLWAZD, OAWXSUAARM" "A"ADD "AGHNIAGURV, ZEFBYIAPXF" "D"ADD "KONLNAPXIV, KMVNOXMCTK" "B"ADD "DWQBHQSYQR, WBGVSYWCHP" "B"ADD "CIVHBWGXTX, PNJVPJOCFO" "D"ADD "QZVYNYPQJU, VUVTYRJLUV" "D"ADD "OPTMFMNXST, UAZZRCZUZS" "D"ADD "ZSPEHGQSLT, NKHTGNEJQW" "A"ADD "EGUHQKFCUW, FLKDABAHDI" "B"ADD "NHSLFYQURO, BZIAIWSYGK" "A"ADD "RCADXHJMEU, PAWLUVZXFJ" "D"ADD "VGGKESGJFM, YSOLSCKTOE" "D"ADD "RJCVSFMVSJ, FVAVFHWENV" "A"ADD "OAAGTNYTVR, ACBIPIIJMG" "B"ADD "SNWSWEPVLN, SCCEFBWDQU" "B"ADD "HULTVIRHXH, FMAFMWYOHS" "A"ADD "NEKQVBJLYF, KQQASXUJBA" "B"ADD "QUSECCNHZD, RNNOHKIIEL" "D"ADD "YLSKYCEAQQ, PBBERRDNMU" "C"ADD "ZZNRJWCJUG, NNLHMGANFD" "A"ADD "YDCNPJZCKF, QJBMLBLXNB" "B"ADD "PKVGTCQWIK, MVTJQOSAGE" "D"ADD "HZEQTGEXVQ, VXUOBWDGBC" "B"ADD "IFZSXJVCIU, DKKBXERUWE" "A"ADD "RZCYIPBARB, XXWUFJKKAO" "A"ADD "KHZSMKZWAF, JZBNNIWPLJ" "D"ADD "LFMNKNQLGI, PCARZZXNDO" "C"ADD "CAATDGEYKC, OUHIWPCJPX" "A"ADD "WBVAUNBYGY, UDNVFIZBJE" "A"ADD "ETJYBQSXNR, XQQWIJNIGQ" "A"ADD "LBUBEUBFXT, XINXCHRMOR" "C"ADD "LCHFGDDREO, VSWXUMJVIR" "C"ADD "EUDZCIISEF, LPOBZODRLQ" "B"ADD "XJNXMDDWQZ, NPAMZHNFWH" "A"ADD "VUWBVBOJIM, UVMJRQQQUM" "A"ADD "RMGGPWZMPH, XJPIATWUJL" "C"ADD "SIAZVCCMZC, RBQMNWUXSM" "B"ADD "ZBIPMWZECC, KITYHSYTLC" "D"ADD "TBSYEMCGCH, HYYAHWUYSU" "B"ADD "TZAOTBRZFG, JAKRQWULWX" "B"ADD "BNDRHDAYNA, XJAOYCKLDW" "D"ADD "NCEKKEITJZ, PODXRRKRWP" "A"ADD "TNNPTBHQBQ, JYCIVWWEIU" "C"ADD "UFPDRVWLAB, UFLOWFIBTJ" "B"ADD "WHUGDZPJCD, JIDBAGQGTW" "B"ADD "PYXNDMCRJO, HEQZNDOTNB" "B"ADD "BMQHBOGBIU, HTVUSNBJCS" "D"ADD "JOXYIBGNPD, KWDCYCITMV" "C"ADD "CUHIKPQAGZ, PUWAMMOPKK" "A"ADD "YKNWLVYEGW, ZFLRGRCDQJ" "A"ADD "VKPRTJXPRP, TRDTRXNHBB" "A"ADD "DLMDNDOYZB, OYXKZWONCG" "C"ADD "UOTWFFVYWU, YXKDOTGMKM" "B"ADD "KZCQYIENVZ, NDRTXTQDPR" "B"ADD "WXQKTRLPRD, MARQOIUBZO" "D"ADD "DDZKNHMUZQ, DVDKGACEJR" "B"ADD "TKHRIUKNYN, SLXSXKWYAO" "D"ADD "EETKYWNFVK, TMIDDMFWFY" "D"ADD "ZFQMRPCLPA, CQFVBBBAKR" "B"ADD "ZHUUASIGDU, RXZNKEDVCH" "C"ADD "AEWZLJREOM, WFCIMXTRQE" "B"ADD "HYFSJSFIFA, QOXSNPCXJM" "B"ADD "ZVJELWPLIR, MIHQOAMCQP" "D"ADD "YTPEMOPMJK, MUYKAUPVFF" "A"ADD "EPVYBJGTUI, MTBIWIEVWA" "C"ADD "PNTDQSSPFE, WPWERVFRKB" "C"ADD "BEJBMOXQLJ, LWKOYFOIFJ" "A"ADD "NKCBLVIKQN, DYAXSSWYXZ" "D"ADD "ERPSYJPYQJ, BNCTBGWJHL" "C"ADD "KWTPJHDNDM, ARIOYEBPMT" "A"ADD "FLOKFEYQNQ, COPRSTSINB" "D"ADD "ZUFOXMCETC, CXLRWLHCHO" "C"ADD "PBFJRAUTIW, AUMWICKOUV" "D"ADD "NDKJZSWKVV, PZKOMZPPOZ" "B"ADD "XNUWISESOE, FGYRWHTREP" "D"ADD "ZZXXTSQUNN, JRVEFVHJCX" "C"ADD "GGKXDOVUNA, HSVBXAAHYZ" "C"ADD "TZVJUKVJTR, IGCPGPQYGD" "B"ADD "FJBZPXZPKF, YHGZZJXCJY" "B"ADD "GIZBRCTEOG, NKLQZELPJB" "D"ADD "JXIMXHIGOX, WDUTEOEQJU" "D"ADD "NTFBSJBEOV, IFEFUMEDLO" "D"ADD "ABIDJPNNUJ, MLXNCEKTYM" "D"ADD "SKHXHHCTFY, PWPBRSAURN" "D"ADD "JPVFNILQRX, IBDTTMXUJN" "B"ADD "QWNEGVVIUR, UEZSEZSRPC" "C"ADD "LJDAAGDFZM, JMMRGJULSI" "D"ADD "RTZEMPLGHW, KRHVQKGJIQ" "D"ADD "KLYWUNTSZZ, QBWENWGJBL" "B"ADD "IBBDHITDEZ, AVAKKSTFVO" "D"ADD "TRWRQKLPAD, HQEUESXWCF" "D"ADD "THOCRMMCXB, KGXUJQNJCI" "C"ADD "FDUXKXPMEU, YJRYAYGRUL" "C"ADD "WSYLTFZFTM, NFOJAAUWDW" "D"ADD "AKOVQJFHJK, KYIQESWORN" "D"ADD "LBBJWMVIMX, NILXWCMLRG" "A"ADD "DQULKVROSW, VDPAYLKDUP" "A"ADD "KBUYGHTTOD, NJMXIRSDVQ" "C"ADD "XUDVYRTRVD, RCHQKRQLXE" "D"ADD "NMVBKZSIYK, JMDOJEEZWN" "D"ADD "IMNJVJVNCO, DZGNBOIUJR" "A"ADD "SISZHWCVHO, JEZVYIISIP" "B"ADD "MJPWKGIUYO, TTRDPWELDS" "B"ADD "GIRABKZYXT, BUYLRNSHUH" "A"ADD "MCOCQZLRVH, LJJZIWGADY" "A"ADD "FWKCRLLLSJ, JQANCVIFHK" "A"ADD "MHLMXLAMAW, VRCXSEPUQL" "A"ADD "JILPWYWUAM, MDABTIJPBH" "A"ADD "QVWYVYCXTU, KWJJMPLPWU" "C"ADD "REHWAHPLQY, FOILYPKWSA" "A"ADD "MTFVYYVOOP, PNFPZIOGUE" "D"ADD "NZECTUXNQC, QPFGOMSTAP" "D"ADD "LGFUBOOGBV, RMLBIPNMAA" "C"ADD "XAZJIHHRBS, AIKRYENLTO" "A"ADD "TJCARDSRXC, IOXFTMKZQD" "C"ADD "WHWUGSBIWI, UKZQHFYGTP" "A"ADD "DVFJUKFXKG, JWIAXMHTZW" "B"ADD "HSQSJZZEYD, AJHRIRTART" "A"ADD "KQWMIHJQHM, XDAYCMDQBI" "D"ADD "MUTJZNLCYY, JKUEPIGTGP" "B"ADD "JBFPOAPSXK, PLMJGUPFTQ" "D"ADD "AEMJTHQNCS, YYTYMWQTXA" "C"ADD "HBWDDSZIWS, LROPMIIXDW" "D"ADD "PBMEXTCUKF, HDYUQUMCML" "B"ADD "XCUUUNWDXO, OVNKANNVWR" "B"ADD "TVAHSJAEAS, PNSWFLWVVL" "B"ADD "ZVKSURVMRT, AYOJGXCDAK" "A"ADD "TUJEZFJSXU, YZLTIHAISJ" "B"ADD "PMHJGTBJCY, YGNFRRUUGA" "B"ADD "DKAZQIJGMP, DJHPDDMKHT" "C"ADD "VACXVVZCZE, JMIYCRQWNE" "D"ADD "MBDIEFWVXX, QTPZGHHJHH" "B"ADD "NPQALJUCQJ, HQNNTEGNCH" "C"ADD "IHQSWOECJT, NVFTJRDRZO" "C"ADD "XRVSAJJGAQ, FHYRSCXPEP" "C"ADD "GVWRMVSWJY, SJDJJUUHTO" "B"ADD "VHWAXJNFOB, EUVPDPRHNH" "C"ADD "UYVJZYAWMF, MMFTZCNEJX" "B"ADD "MDSDKBPUNH, YEGERXWZXY" "D"ADD "OHVEJVTTHK, AYARATKIKP" "D"ADD "KCYJQIRGCX, FIDISFNKGQ" "D"ADD "VBELHQFFMZ, MFWXEJWAIG" "B"ADD "OBJGZSQIAF, GJFUQGBNNR" "B"ADD "SBFPRGBTIZ, ERXYVHMLIG" "D"ADD "UFPKJMVKFC, JHSYQKSIEX" "A"ADD "LRUNIYATVQ, AKEMWEDPRV" "A"ADD "VCAQNWCBJN, GVZAHRSIXZ" "B"ADD "VMJPSENTBP, SNRYAWZVDU" "C"ADD "IFGUKSJBGV, HEGZDNJYRN" "D"ADD "LFLHDRAFIE, KSTZKLAUPQ" "D"ADD "LPOTKYHPJR, AVUDDYYVTM" "C"ADD "VRWDBFRAPE, LRNLHKMZAD" "D"ADD "VOPIYJKBKL, CROVWWVVSQ" "B"ADD "MTUPBCYZOR, UEZWCRCUYS" "B"ADD "TVUGWTXQWI, OWKJHCEWXG" "A"ADD "JEINNHJBYJ, BBGPHSHHLS" "B"ADD "FLXKJSDLVT, GYZAKOICZD" "C"ADD "PWNVMLAQLX, ABRSLWLOJK" "C"ADD "EBOGJCCCXM, XQUIQLNRNB" "D"ADD "AVLNZFLKGW, HIVZWZJOCC" "B"ADD "HGQQEJBDUE, ZJYOIANYXD" "B"ADD "ZIYSHGKZAV, PMRPLRCYDC" "A"ADD "LOTBBLFXPF, YRLIMZUDQQ" "D"ADD "MJHBQNCWPO, NMDPYDXYHL" "D"ADD "TXODWZXCQL, AFCOEICBXY" "D"ADD "JIKSFOLOBK, GWLCMXVKHG" "D"ADD "ALDQKYEOWZ, XLBHPEBJQV" "A"ADD "CKZHAAKGEE, JAHYWKEFUO" "C"ADD "NNHQTTOBVS, BJZLTLCNRE" "B"ADD "HLHNSBSJAP, EDOQUFJVKA" "A"ADD "LQXYEFDIKB, FQGYMYZMIU" "A"ADD "UGPXZUXPBE, ECTCQMTOGI" "D"ADD "BFSEIZDBPR, VGZSZULWQN" "D"ADD "GADOHYOPZF, NKWXJVNMGB" "A"ADD "CNOBPVRYHV, SRITZMUBVW" "D"ADD "XEGKJSNJBT, CQNAOPQNRC" "D"ADD "LTQYQUBDHM, HURPUXWEUW" "C"ADD "MCAJKJENNY, JTZKWPLKKN" "B"ADD "KYZXBIGMYS, MUXSUDLWBB" "D"ADD "PXTVAWBPKA, LQOGEWFSUF" "A"ADD "KORWGTOVZK, JLCVTYJRZE" "D"ADD "RGHLCATKSE, ANRCUGFTIJ" "A"ADD "VCMSVFNBDD, UJLBGZKAZH" "A"ADD "ONTNAVFTLQ, WSPHOGYNHA" "A"ADD "APYYKRZORI, HYYUIEYAVB" "D"ADD "DASYYFBSOF, NZJWBXEIKX" "A"ADD "KYUCFTYSLG, CGDZYNDGFF" "B"ADD "FYYUCXYAYY, ZGQIOWPJRS" "B"ADD "VKIROBSYVX, MBTNXVQCLR" "D"ADD "FCUWZXWYFS, NKNTRZSQOB" "B"ADD "UCEWUZMFEK, TROEGQZGCR" "A"ADD "HRNTXRPBBQ, GFVENBHOXW" "C"ADD "IUGFHNEMCL, IGJVFOZJWV" "A"ADD "SITUEMYJHI, TNGAXKETWG" "C"ADD "GPEAJFXMRN, RGFFTDEASZ" "D"ADD "XNNFZXHXHR, KFIQYQIJGN" "B"ADD "JAMPXGLLXC, CEZULFYKYN" "C"ADD "LHXMVAEION, HMQPHLVGDG" "C"ADD "EGLXHJFRVL, KTJQFWJPSL" "D"ADD "KBEHQSFLFR, CKHGENTSHP" "D"ADD "IHKDYWGLXG, VIXPMNAEBP" "D"ADD "KPIGMNNPPN, RQOSYNJSYD" "C"ADD "ZVTEELYSXB, YXHBHSRGPZ" "D"ADD "JHSQRSQUMQ, VZNKKXYOKF" "A"ADD "SUAKMKMGMU, AGSRQAWLTT" "B"ADD "EIPTZYCEJW, CTTWZBQOUT" "B"ADD "CQKMJKVOTU, WGEUGALHIC" "C"ADD "SMSMEJCACU, NTBEHCQSXA" "C"ADD "HPYXKVHIXE, TTLCYAXPDT" "D"ADD "LYFGYKUORZ, USLEBWLFUL" "B"ADD "QVTAHWDPEK, FEHPBNDPTW" "C"ADD "VYGKRHWSNA, HBQRCWRUFK" "C"ADD "VEVDSOOUTC, DZDZIICIKM" "D"ADD "DKJUBMFHFR, JJOYBHXVVK" "B"ADD "JABDOGQTJS, BJFUYDGYOO" "D"ADD "RATKFZONYZ, QJYJNBROQG" "D"ADD "DMADUFZOVZ, CZDOVISYWI" "A"ADD "XJVEUKRLBT, RKEJPPLVLF" "D"ADD "CXTFJYZJPM, YFDHBMUHSY" "C"ADD "MUFCVBHBVQ, GIEZUMASQQ" "A"ADD "FRFWZNUQVT, MVRBBVLLEL" "A"ADD "RHGWZGNRCO, FQLXUSKUOL" "A"ADD "DIPZQAGIGO, QFLUFWPNCX" "C"ADD "SZMYAOFGKI, ZCMVNDQTNO" "D"ADD "WXGTDIEAIH, HQSDAKXNUB" "A"ADD "VMIGVVHXWF, YDLPNGFZYV" "B"ADD "VLFEWHSSTC, GJWQRTOSRJ" "C"ADD "DIYLCSCSGQ, DUAVYKFNKX" "C"ADD "VCPEYTRCJQ, IYEIRDXHDI" "D"ADD "POBUZHXHJM, LUPMFZGZEL" "C"ADD "EPFJDKEYQU, HHRJTSMNCJ" "B"ADD "AASHLKFAAJ, AQEQSDJSLF" "B"ADD "SWDQZHIGIO, OYKBAYWCSS" "D"ADD "EFHQKYHYDP, GAFFKSDSYA" "A"ADD "DVHYZOKSCO, EPOASLTBCG" "C"ADD "ASNGJQBQCK, JZZBFNLATL" "B"ADD "DEHYPPTYRZ, BZXVZSUGSH" "D"ADD "XDOBWOVUGL, JVRPPCTLZT" "A"ADD "DTERUXOGHL, AVHRQGWGYM" "D"ADD "GUBPDHDJEF, FAKWZPRCBQ" "C"ADD "VVNEQCCPDY, SDOUIZFZZE" "D"ADD "LCDTNPFSQL, OQSICZNOXH" "D"ADD "ELJKRHHMOI, EVSURZQPYU" "B"ADD "TRPTZPFTCO, MFSYJZZPYW" "C"ADD "UCWURBJPMA, FDHABCLDNX" "A"ADD "GMEZGFRWAN, LDINLHDHQL" "D"ADD "AGGMIUZGIN, LRCCHBHIDO" "A"ADD "THWBGCPIXB, ALIMILNXNU" "D"ADD "OQYBRVRMIK, VHWLSSJHGX" "B"ADD "VSNTQMSTIJ, FJBTNVLGQI" "B"ADD "RVAQSEIEAG, RLJNWNBEHX" "B"ADD "ABTVPMWIUF, CGHRNEAGJL" "C"ADD "BPOFYTCLUD, PMRJUJZLAM" "C"ADD "CAPBSUEDFD, LVWOSEIYUR" "C"ADD "EIVVNYWKWR, SCKOPGFTKW" "C"ADD "NULIOMQJBL, LAUNYTHVXO" "B"ADD "SZBAOJCBAX, GPPEPITRKD" "C"ADD "MJLMCHZXAE, ERGQDUYIQR" "B"ADD "VZXSDFEORH, RQKSHNAHCC" "B"ADD "ZPQLGULETL, ZQNABZGSJU" "A"ADD "TYNGLJXMSO, EJGYTRUFCH" "C"ADD "IBCRIJKFYG, JJIIYWOJPR" "B"ADD "OVEHBWOUTJ, FZCMEQQBGN" "A"ADD "OGWJVHLRAN, QRJWLVUSPW" "C"ADD "JCADQLLWPW, DCQUTLTXXV" "D"ADD "NFOIMDTJWW, DTXNLRXCSW" "B"ADD "OMAKKLATAZ, CDZKSRZZQV" "B"ADD "BWXNKZTMZG, NSZAMYISFY" "A"ADD "MIPYIPQEWD, KPFUZZTEWY" "D"ADD "BVCNUUPHUJ, TBTTTWOEOU" "C"ADD "AREFGLSFGR, LTUBXTFZPM" "B"ADD "OKGOXYGKVB, XCMZEHIUXO" "A"ADD "BJJRARDBPU, XNBMXYRPYV" "D"ADD "ZYFEHPZYMT, RYUDFRBRBB" "C"ADD "GGQUPLWYQV, MLCWWQVJGX" "B"ADD "XCDIUCXGXW, CJNAGEOBLE" "D"ADD "OBMQVRKXFM, GFLLIWBUYO" "B"ADD "GKMTCMVAPW, UPVWEHJLUI" "A"ADD "HHQHTDTUXO, KUTYQIBLQJ" "D"ADD "HEGNHLUWKV, XVJRXPJKSE" "D"ADD "KNIBYNCORC, TWBKZBTQAB" "D"ADD "TFPFJZVRUS, TKEFAKZNTF" "D"ADD "JZPBKVZJEX, AUGXVEPSXJ" "C"ADD "NZMJHRCGHX, QQQBFUSZIM" "B"ADD "FMKYNYVCSB, SRBKTYBXVV" "D"ADD "HDJKNTIGDH, EHATJTOBUZ" "D"ADD "JVWZQEOAHC, SNPJKPJQFO" "B"ADD "QQLVIKHARX, WJWZWBDVUG" "B"ADD "MXOXVSGGGG, VGRVWEHJTH" "B"ADD "BJFWOUDWKD, GMNCXZTDUN" "A"ADD "VXJUFNMSGN, AGGKLTGZPV" "D"ADD "FSZEAKIIPN, TVPBICNNDC" "D"ADD "BMBUBVVLVM, XMCMTRAGUR" "A"ADD "CEYPOPFEHT, BOMVUPTPDL" "B"ADD "RYMDPKDEBV, FIMDMEUMBM" "A"ADD "TGNBAABXUV, LRVITDUHNX" "A"ADD "RFVJRVIWBG, DDGNEBVJNJ" "C"ADD "GPEFRJYRSU, XQNVCGYYAI" "B"ADD "FPAFEZERAT, RTIUAWOBLL" "D"ADD "YHQCXNNQZF, QJYIUWTZND" "C"ADD "CMZDBKOPSO, DKIPVHKRTC" "D"ADD "FPUVPZHETV, NYUIFOZXBH" "D"ADD "RYGGVDXUOY, LQEIPKTDRD" "A"ADD "EQRFMIYTTG, DOKLVTYANU" "C"ADD "MEOPAJREAR, NCEJNNWJIB" "A"ADD "YNWYKJRROS, EOIENZXQXR" "C"ADD "OLESGJOLPW, VAHRZDIUGD" "B"ADD "LWDZNDGZMJ, MMEIGVPZCC" "A"ADD "TEVBIGDHYE, AASEMJRTEM" "D"ADD "KOHECRKYZX, XXQBQEQGGV" "B"ADD "RMKIDACUPR, XQCLWQCXDK" "B"ADD "HGIUNELPQR, SLYMJNFJUO" "A"ADD "BMGURRIVPB, BAZRUIQCEF" "B"ADD "KISWEMRLPL, ZOIQFDUXJB" "B"ADD "RDVKIWFMZQ, OTYLNQVDSW" "B"ADD "GQYLLWZEKT, ICUASOOQMG" "A"ADD "LCEGKRPEXB, AISDUVPMGR" "B"ADD "CLKEXUORNX, GRUBFMNSSJ" "B"ADD "JSJNIDEXAP, FXJERSGWNP" "A"ADD "LZOEFBDQJH, VJHTNVNEOL" "D"ADD "UXAQAOUTHN, NRNTWYMCII" "B"ADD "KETJZLDNEH, KLCGPQMJOW" "B"ADD "UVRHEAVOMI, AJYKYJYLMN" "D"ADD "FJHVIASYKW, FVGIOQPHLC" "D"ADD "TECKOXIGVW, XOWSCXTHTS" "D"ADD "VYYZOPDECF, GJJGXCMMRE" "D"ADD "MYWOZYIZQI, FGXPMPQITB" "D"ADD "KCMARWAJRZ, AYOKVXLNKO" "B"ADD "NAFDRWGIBW, BSSLQWPDHK" "A"ADD "EEMYNHZTQU, BVYJMQLXLY" "C"ADD "ACNABGNVMG, KANNJCBCDP" "D"ADD "FYASNYODQK, DDMVQDHUSV" "D"ADD "UPBWOZSYCG, UFVTHEEDDQ" "B"ADD "FJLOMIXGDB, FEHLKANGHA" "C"ADD "GBPJYAUIIG, KEIPDUGCGZ" "D"ADD "ZJLKYCEOLJ, FAEKVYAGVJ" "D"ADD "QHWOPJWEUL, OMHSEZVUCZ" "D"ADD "UHOTMMKFTL, VOMUPZIRAB" "D"ADD "ZJIFMLUIVE, CFYICNRYGK" "C"ADD "FEUXLCGGQY, RLQDFKVOUC" "D"ADD "DPMIOFTJOU, VGFPBHCMBY" "A"ADD "CYKLCEUXGH, YRVPBBWNCC" "D"ADD "FKYVZAXOLW, XRWTMHBLVI" "A"ADD "GFCOYLMXJV, JBVTLRVNDX" "C"ADD "FCVSESZLDU, FSOZMRGGCD" "B"ADD "WTMOGPAOZR, KQONRAMWCD" "C"ADD "YAQMCBISNX, UXTHWXXYGF" "B"ADD "YTHGBXNRRR, MBSMOMRYUK" "A"ADD "SLMUPEVINY, AWCMJZMZHC" "B"ADD "IRVNSJIZKJ, KNUNSULPTI" "A"ADD "QTQFBMJIBT, TYHJAXKLRZ" "C"ADD "QCGZEWMHPK, GJYLZKXAEF" "C"ADD "RFWEUVZPFQ, IJMXMTSLCW" "A"ADD "HKBPCWIRXU, WSKGHLHZPX" "A"ADD "KSBKVBQHVQ, LPCKKQONLA" "D"ADD "ANLREKUXRH, QZEVIJMWZS" "B"ADD "PBBYSMFBWK, FHKLULMPLW" "D"ADD "ZVYASKFBQH, GNBWFQPHQN" "D"ADD "DLCVRUQTYR, AGNJVQYNBE" "D"ADD "GUSSTLRCQZ, AAHMGEDDRL" "A"ADD "MFWPOKSCHW, JJTPMMUZNZ" "A"ADD "PGFEDSXNQU, VGOMPYODBT" "C"ADD "HOVIYWAITG, MMDEPHWZIY" "D"ADD "LUYXKRODSX, HJXKSNOYNJ" "A"ADD "WOSSCTSFWV, QNYJPNGLOX" "B"ADD "PTJJDRBRXP, NMLLJRXCYA" "A"ADD "NDYFKUCUGP, BOZCNWHYWD" "D"ADD "HYULKHZJGT, MALRSKCTYJ" "B"ADD "QJYEUESEBH, VMXHPMIRAN" "B"ADD "CWUFQPWOOP, AXIYFZALNI" "B"ADD "ZBQSLYIXAO, SERPRKHILI" "A"ADD "TWXSJPSUNH, GJOAKTEZCC" "C"ADD "MOYGFYHKBX, KVTUBTYFXK" "A"ADD "QYRSPUEINJ, PCMCFHPYNX" "A"ADD "NOGTQWOZEO, MBMROULLHZ" "A"ADD "IZLAQHIRYD, TMQJCUMWBO" "D"ADD "BROMKFDCGQ, HWGKPXGGME" "B"ADD "UBHAVZMBKO, FUXTIZTHJH" "A"ADD "EUVCPOWEDT, GTVUIXDKDI" "A"ADD "DDANSADRZC, FPVUYWQVSZ" "A"ADD "UWBFWULTKJ, USYNQKUDSJ" "D"ADD "WSGOQVYLLX, YXMPKGCIWB" "B"ADD "QBVDOUXLXK, GVWAAQWUGI" "B"ADD "MWXGGDTUZB, RQSHRLNYDX" "A"ADD "OIESHJPAEJ, ZJBGVHCBSL" "B"ADD "UUJUSYFYGJ, DTMCDCCQDW" "C"ADD "DQMUNGEOVJ, YBOIFSYTVR" "B"ADD "PSFHTGOGRC, UXVHLDFJJL" "A"ADD "DVFDMINMWD, JJOVRVJNXZ" "C"ADD "QFMMJYVOPA, ZTRPELBJWW" "D"ADD "EGXJYMYUGD, FUKXEDPTOH" "B"ADD "LSAJYDZHIH, WXRWWZBOFC" "A"ADD "AFSEUVIMLD, LTDVAGDVZH" "C"ADD "XXSRCZVMLB, CAIIFPPLHF" "A"ADD "OBGSNWGMEQ, GPJZIKIXFE" "D"ADD "QTSPKRKAPR, ZJRBFDFLHX" "A"ADD "DAFEPWCIUM, YZPOJGXXXH" "B"ADD "KNHOKJNXCA, MIUGPJSPQV" "C"ADD "LPTWSHFVWP, JVGODRFEOH" "A"ADD "GDOJEVVIHB, SRPBMVMGIB" "A"ADD "BIOWBQUETC, EGAMDKMWCT" "A"ADD "HIIOPHLGVU, TWAHHRQAZD" "A"ADD "RFKFUWAFFR, VLJKSMJKYZ" "B"ADD "WWFUAFESQS, FJNYWFSNLI" "A"ADD "RMFWOKWAZU, QJGXLUJSUZ" "B"ADD "QJJZPGSZZF, IHAEPIVXPO" "B"ADD "WBYRWPTSWI, VFJDFXIHYY" "D"ADD "TOADYHYDRC, BAULMAZCBY" "A"ADD "UBRYQVHWQJ, TYUHGWOGGQ" "B"ADD "MKAZFUZZKO, LXKYKRUMPB" "B"ADD "VECEKYTOPS, CTZLTWOZPD" "D"ADD "LTMYYUCDAO, IWZVHIUCIB" "B"ADD "VJXEPRNEBI, NVQEPXCMXN" "B"ADD "YBDEAKXQWJ, CNAZUVUOXN" "A"ADD "VDKIEHFAPK, CDBUMOPMYG" "B"ADD "IDMXBKWAUF, CMZUQDPPGO" "C"ADD "BBTWFZKRRE, AIFUJMEGIE" "D"ADD "JILPURVYKR, YQWASSVMYV" "A"ADD "UWIXLKOAXC, EIFJQWUXWF" "A"ADD "JPNAASLFWU, BIQVFLGIXR" "B"ADD "ADMKKRWHVP, KECZJYNLMY" "B"ADD "TRBCSTAVLE, EHEEBHUUTK" "D"ADD "WJXQZQHFCX, PAZBTECAFR" "C"ADD "YKXIVDODLR, BPKXVQSKAV" "A"ADD "DVMKGNBZCW, CTXWIASLCK" "D"ADD "OWJYWLJIBL, BJTOGSURBJ" "B"ADD "VELBVJVQQZ, OYUNODVGMW" "B"ADD "TRTGQYXLPI, CVHRIUEHSI" "D"ADD "LEPSKLOGUF, RKSZARVBPS" "A"ADD "YCGXIROMZX, TCSVJRRGVW" "C"ADD "CGXCMRWDNJ, FONDQOXDYQ" "C"ADD "JSLBNUSUAX, ZYZKSUQAJJ" "C"ADD "GIJUILWUHI, WNUJQJLPLS" "D"ADD "QMVYCXYSMG, FEUQJTGSRL" "A"ADD "VCNSXSUVPW, GGXTDAJHGW" "A"ADD "ZSWXSEMTMY, LIGDHGYWCR" "B"ADD "HPSSDCEBIZ, UHTYFBCIXH" "C"ADD "LIQUGCBLEE, SBYMPJHBQV" "A"ADD "UZJRIHDOPZ, YQCAFRIFYY" "A"ADD "JXERZOIUDZ, TEBWJGACLP" "C"ADD "ERWFDYSEPZ, KAMRULYAXN" "C"ADD "YFJCKBGKGM, QWKNAPYBHB" "A"ADD "DKKGUWBETQ, TQDNECTBUN" "A"ADD "IWITUVTUOA, WJAYETGEGL" "D"ADD "LCPHCRNTZF, BUOZITYMXD" "A"ADD "RPKZTTNSWN, NSUXZENIZE" "B"ADD "LZVWQAJHYS, TFKPJWYYEA" "B"ADD "JETZIDQPKA, RIXPQMTCYK" "C"ADD "KOGOJZEGAZ, NFHBZGTPEL" "C"ADD "XTJKFFHNGH, AMXSJLJJQE" "A"ADD "KWIMALVKPI, WXKOJNWZKA" "D"ADD "VSWRFHJQLH, XEQLOYOEUP" "B"ADD "OFNILGYUWB, FWPTEVZDHN" "D"ADD "ACFZWVFZSW, ESXHJPZBPB" "D"ADD "PMTCBCQQHP, RMPFAJDTNG" "A"ADD "GUPLWRKBKU, KBRSXFDBUX" "D"ADD "FNMHGFSRWK, VDMTTFHDGB" "B"ADD "HTOXKXFWUP, KVKIBBVNCB" "C"ADD "SFVHKDXECZ, XQBXVSLJNW" "A"ADD "LQDBARXZLL, XNBMGZAJLX" "B"ADD "WDBCOGYXDF, GTUWDUZELM" "B"ADD "FLFOADMKQW, DMKZDNXOLZ" "A"ADD "TTLGLNFYUS, RWKIKMJCSF" "B"ADD "KXYDELWTYS, OXSPCXRZCN" "C"ADD "LCLIPOZOZZ, BKJEYAMIBE" "B"ADD "KLUNLDATNU, HTPJBRFKXM" "A"ADD "LCQXJAWWSL, EZXQISGSFH" "A"ADD "GOCAXJDTFO, AFHRUHJNLA" "B"ADD "BTHXOEHZHQ, ZSNPFZVMLF" "C"ADD "ZVLNIPCBPP, BTYCGNOKOD" "D"ADD "QPANMJOBLP, FVIFRXDDAT" "D"ADD "RCEGPGDRZI, MMDQFQPTHI" "A"ADD "QQBYKECYJX, OWNMRMKWZO" "C"ADD "YQZQTVNFEZ, GMCTPMQMQE" "C"ADD "PVTHXVSWFY, ZBJKWAXEYU" "B"ADD "ZNEVRAOEKQ, OSKUZXSFCS" "D"ADD "VGGSXTPIIO, FZWWYWXZTE" "A"ADD "CLOKNHUOIY, BIQIDJJRSR" "A"ADD "WSMFVFAGBN, JTBWIMUOKJ" "B"ADD "LLPOUMMPCS, VJCUWGMCLP" "C"ADD "XQVQFATEKK, PSUKOUABWB" "C"ADD "BILPIMRNIO, QEPFXOLDGA" "D"ADD "EAXIOAIPPL, QUCGEEQAQM" "D"ADD "TJMQXCWPDA, JSVIWNPRSF" "D"ADD "MVVVVSTWEP, BMWVEUBCAI" "D"ADD "QFGHBVBZWJ, JYBDPLROEW" "A"ADD "WDYUYKFUAE, QLBMQMSOKJ" "B"ADD "QHOXAMPZCO, DBBVEENRZW" "D"ADD "YVPPRZKJVS, GFHJDSBRQT" "A"ADD "KBKZZAGFQR, KGKQIQDIQV" "A"ADD "EYQDLQLXPL, JWDUJXIQUP" "D"ADD "JNKOMGNNJO, WXVNHKTQIN" "D"ADD "FBZQKJVSIV, TIWCKINRIR" "B"ADD "DFCPELVKSY, PXCPLWNNLR" "D"ADD "HZQQFHWWKH, FQIKZTSKIH" "C"ADD "LHUJKZRDJX, ELETWZZHMX" "B"ADD "PFVLUGQHGV, AZBYIICZFZ" "D"ADD "OPKFPGKDLA, MOTJSRJCYZ" "A"ADD "FEPBYSJJAX, OZZOXDPHTY" "C"ADD "QIFHKSNLJF, FHWUBQDQPC" "D"ADD "ZCUWMUUCTM, XCLSSZPHNF" "C"ADD "TJSLNFZSOT, MMYFYAASTB" "A"ADD "MAEFOJYJTZ, FQLEKYWEXF" "D"ADD "ZVVXIDNCWU, OXKAHMZBLV" "C"ADD "JMQAPLDHRE, PISMOGBTWJ" "D"ADD "VWKQYASPTM, TFEGTTOIDR" "A"ADD "OLYPXJPPLD, ZEASXDEDYH" "B"ADD "SFVMMQLAEW, SQDLJSEKHM" "D"ADD "KZFOJEEBJW, SYJSFEOABL" "A"ADD "AFNDLKGMSV, MABAKRKKJY" "A"ADD "DBYPZUZWHT, CQKZHEKBCT" "C"ADD "MJJJKQJRAB, RDPKLKAQWL" "D"ADD "PIPJVYKYSC, VRUANWBAQI" "D"ADD "VVIMDRBMKD, UOCVILXFDG" "A"ADD "TDOOGZKFSM, PIBLUOJTIT" "B"ADD "JBAUAGVGHU, AFNQHLVDMY" "B"ADD "BIHAGYLVMO, NRGEXZHKGF" "A"ADD "MNLLHPNTCG, LPUBAFMQRR" "D"ADD "GUFOSKUNEU, GFZEUBZZSG" "D"ADD "IJZDGKECAF, ESNFRMIHZF" "A"ADD "WYPSKCTJBR, KCLIVRPUWE" "C"ADD "SBFFDCMEOH, VSPXXKBKIQ" "B"ADD "ICSJJBCHIE, ACGBROCENZ" "D"ADD "EZVJZCUNCI, IOZPDXQSLF" "C"ADD "KGUHIOFGXJ, HQJPMHBBSC" "D"ADD "PYBHQHIVLK, FQMSWPKUVW" "A"ADD "UBKIUEOZWP, OXWUZROZBI" "B"ADD "HXUBKZLURI, NDIBWOGZKN" "D"ADD "FWIOTAGXQA, ATNNJGTCUG" "B"ADD "FQYLDDXSRR, YUYERELKSN" "A"ADD "RUTHOUBZMU, DKZYWRHXGP" "C"ADD "DZSPRQNLKL, HYVCXBGAGG" "D"ADD "IRJCBUVPLS, RQRLVZRHKR" "B"ADD "DWOSAALHHZ, VNUXLYOTWD" "D"ADD "MFSQFLOIQN, HUZGBJZWTR" "B"ADD "VWYHUEKDSY, JAINHJOFCJ" "D"ADD "UVXJYAUEMC, QAKGRUGSVA" "B"ADD "DUOJCURLJZ, WRZPJQDMVZ" "A"ADD "JWYEVEXYZM, BVHHRWKOCF" "A"ADD "DYKJYIQUVT, FFVXUOZORZ" "C"ADD "MUJYPJVEZV, YEUSUFWPSX" "D"ADD "LOJUPGMACT, BOUBZWLHRK" "A"ADD "QJJWDKQDFZ, WZTZLHZZTS" "A"ADD "VYYKQYAMRS, STBWTUPVRO" "C"ADD "MTWODDMAZK, CQGYULIWZY" "B"ADD "PSQEKHYXCJ, GNZIHDDPWH" "C"ADD "UNQOJJEGLY, MJMJHIAYCO" "B"ADD "SYGHHMZXDK, FQKOLRCFZT" "A"ADD "GYAALZWCRC, HFQKVXZRRV" "B"ADD "NERZATJRRP, QNZSZCRPPW" "A"ADD "TPVEOEMAAJ, GWUMNRGWWG" "A"ADD "ALUFRMSRQK, BULMQRHGTG" "A"ADD "UQQPGLYHNS, YQZEHYDOKP" "A"ADD "CHYAGUSAMM, IDKQDGMJHZ" "A"ADD "LPYANZYPAR, LZZOGWRDRH" "C"ADD "KISDEXIWJY, DETZNFLHVP" "D"ADD "NPKJSELESI, PVPBLSCWUJ" "A"ADD "YTDBFUOKYN, RRIGFCKVPR" "D"ADD "LEVZWYWBWN, LPRYAYHYZV" "C"ADD "BPOBQWEZSA, ZHYKSUQBNB" "C"ADD "NVQMOEBEIW, VLNPYGLOBD" "D"ADD "VBKFSCARNK, CFGDJFMYBF" "A"ADD "AYDVQNGORL, SPTXWRAOYH" "B"ADD "QEXZFYMKVO, YNGJYCNJUX" "C"ADD "GRSGKRWGAL, AFKDMHPRCT" "D"ADD "VTBVQRBBFK, HXWKIZVIFS" "D"ADD "DZGKPPWYSW, OPTTWMIDXL" "C"ADD "MGSEDWSVES, EVPIUNEKAV" "A"ADD "JJPZSAOKXD, LGOHMAWNHQ" "C"ADD "WAIZIGPFHL, XPSFCBCRIC" "B"ADD "KKGBJXRFZZ, FYPSUVTUHT" "A"ADD "YGVOENMLYF, ZGGQAYFYXT" "A"ADD "CDMAOYFZNM, MXEESYVUBP" "C"ADD "GUUXCLQYRM, SVQISIJHCT" "A"ADD "CYDLSGVMAH, MQFFLAFLHM" "C"ADD "ZVOUDSJFEF, MVGFKBMBGN" "C"ADD "PFCMHYHWAH, LDYEBOPPLJ" "A"ADD "ZWMPJBTKUD, HQRLGXWXSV" "C"ADD "SHIXOLVBDP, WOMRJUWNBL" "C"ADD "RLJDYEZMNU, KQXKCTYMJO" "A"ADD "LNGGRZHKPK, UEFWNJTFTK" "D"ADD "JGCKJRQFIV, HOBDKGIHJQ" "A"ADD "HVUJGELLBY, ZZLNRCAMPQ" "D"ADD "PWNDNYNKYJ, QTLQVKVZIE" "B"ADD "SLBZTBDELZ, XKBQYCUDUZ" "C"ADD "AXYSXXVEZD, AKKKGGNVOJ" "A"ADD "JXTBEVZOUI, UYMAQMBZZN" "B"ADD "AZEYXFMQKQ, RJUEDKXMZY" "A"ADD "UGRAGGMGEB, YDHQFMVZJL" "B"ADD "QEYNYVMORT, RGLTCJPHKX" "D"ADD "PEZYVEZDPP, UOQKATBORT" "B"ADD "XRVSPPTGMZ, PJDMBHKQUW" "B"ADD "UUTWAIZDWT, KHSHOMUGQW" "D"ADD "LQHKTHSXAR, ZVWFAIYGIW" "A"ADD "XOLWPOHLWF, JMWOWWVETM" "A"ADD "RHMPLVFRCZ, TJTCHXHWNX" "B"ADD "HHZJNPJUUE, URGHKOOPBA" "D"ADD "RNXEVIJONI, BNBHLLNHCH" "B"ADD "ZHTJVXOWCI, YZSWJLLEYV" "A"ADD "BEOVCMEMIR, GTVBPEVLWV" "A"ADD "JHXLIDZXQV, UFISNNVNJK" "D"ADD "MYNHMEAAPC, KDYOSBNJJZ" "C"ADD "QRKEYSQHCS, DXBRGEYUCN" "A"ADD "ZUSAQZSOQB, MDVQJHEISU" "B"ADD "MBBMOSRERB, FNPPAVHMFN" "D"ADD "WYAZKJGSLN, YNNTLBNHNI" "B"ADD "WFZSNSBMWO, VJAXSZBLMW" "D"ADD "QJGDOEIKHV, VIQFZTYHAP" "A"ADD "OMOMGKDIDK, RRHNEMEWTC" "D"ADD "KALHIQWPWA, IUSMGEEUEZ" "B"ADD "TPVWRCVNKZ, VDLLCUCJOH" "A"ADD "SPABQJPELJ, QAFFEQGCNT" "D"ADD "BIOYWNBBBL, MDXLUQQSOY" "B"ADD "JLASIQRPZI, ONALJUYLQD" "A"ADD "OHFBIRKLBT, EYBMRWLIKQ" "A"ADD "KFYTWYPNJR, ISYNZEUTBN" "A"ADD "UXLWOZDYHJ, FZKHAQNWKY" "D"ADD "UTWQWZBRTR, HUWJECTIOZ" "C"ADD "EIYIUCEYUR, QWBJQNRIPT" "C"ADD "RZVWJCQLVT, VKYYQGKQIF" "D"ADD "ZMJNMVJYCH, EXJKHTAGQY" "B"ADD "IERSIXJUHF, ZJXLRDUWBY" "A"ADD "HXYSRWGHNM, ARFZWNOMSV" "D"ADD "ISVEXVAGXJ, KQHEIQJKSS" "D"ADD "YOJPPHWHCN, SHWSCZHJRP" "C"ADD "ALPKHDETKY, HTQSHLNKVY" "A"ADD "RDHKRMTTPA, HKWCVVRBDS" "A"ADD "OKLRTDKYLM, WMQABMDSJD" "D"ADD "HRCQGXTHBP, QYJROBSVBC" "B"ADD "RDOVGZNJBM, ABFGWRDPRZ" "C"ADD "REUSKAXIRH, YVSETEAWXY" "A"ADD "PSVCSQDBRX, DQMJKUEWYK" "A"ADD "EOPJRMLEIH, SHOULCAVRY" "A"ADD "SIUZZERURM, HFKNFKYURK" "C"ADD "JYDFDRHHIC, MLYHUNMOLA" "C"ADD "HYKGBTTPJX, NPUOTFHLOS" "B"ADD "JMBAUHQJDP, RVCUMGBRMZ" "A"ADD "KWCYSGFWZK, TSRGCFOSXQ" "C"ADD "KQBMTUVUXA, JHWEDXDZYN" "A"ADD "WJIWULQDGA, HBLTSTVRKY" "A"ADD "LLYLWIUEFO, OHOFTDEEDA" "C"ADD "SYUUVALRAL, WIXLWVSNTM" "D"ADD "DPZRSOSPQY, RLWQYGOWNT" "A"ADD "JYGYPHKEKO, UAXIFVANXA" "C"ADD "SFMPTABRMX, URWECXXUBH" "D"ADD "OQFKHGDFRO, MRZJBKEBMH" "A"ADD "CZGZBKPJPX, YFBFWDBVOL" "D"ADD "IVNRAARSUE, SSFATGGWQR" "B"ADD "ULUFTDNYVB, JNHIUMZLGB" "C"ADD "ECELBZBIAW, UIUPKXGQHK" "C"ADD "XZPNMCPULA, OVCGUVWPLY" "B"ADD "YXEPGZTTWS, ZLFPEAVBXO" "B"ADD "AAAGKNWANI, FICLYGIGOM" "A"ADD "BRMSYZDOPE, IQKNPSNEKA" "A"ADD "ODGOGZLVGJ, XHXJAVNFSQ" "D"ADD "IPZAOATXEA, UZZANTEMQC" "A"ADD "QYYRFCAPIU, ZQAXFDXOKD" "D"ADD "JUHACFGBPB, MIAJJIWVYE" "C"ADD "TMAJCONXIR, QAOMXIRCKK" "D"ADD "VUMZUWHFED, GYRYPUXNRQ" "A"ADD "RCNZUPUAPQ, UXFWRGEQSQ" "D"ADD "HDSUGCWTLB, FRHXTPTDUD" "B"ADD "ZIUYGZFFNV, ALUEWCYAWF" "C"ADD "LGQNAAQAKX, DIYLVTVFTO" "A"ADD "TWJHTSIEKS, KVXAQCJSFO" "A"ADD "GWJZDBUAUE, WICZTNVHXW" "C"ADD "DKJZIQDBLU, IQVQPPJMJQ" "C"ADD "PXBEXELLMJ, LCBCJQBGQI" "C"ADD "XEEIEUMXOJ, GVZOCBHRHA" "A"ADD "CSEXTHHAPT, TWJGRMDWLH" "A"ADD "BPKQPYCJHX, YHWADRTPED" "A"ADD "PNHVHYFDHW, OTSONYSMLT" "A"ADD "QVKYWLDVCJ, VGOYFPGHYT" "B"ADD "VTATTOCQBK, WFIFGLBUZJ" "C"ADD "WJTQWDWXWF, XMFWVKDNOK" "D"ADD "NIXCYBGWPQ, JHKQUYQVEP" "A"ADD "NWEDFSWVFJ, FCFQJYCAFY" "C"ADD "CAJUXGNYWO, HDPJBYXADN" "D"ADD "RIBQFNBGNE, GBKUYSSVAX" "C"ADD "IPIPTCHUAX, XJPHWWWHTV" "C"ADD "NCGYQXNYRG, AMLXFNPPHP" "A"ADD "NHHOZLDPGY, VXWVHCMACY" "D"ADD "RUOQVAYMZI, QMYUJPMLLX" "C"ADD "WTUMHEDQSN, ZQDQUNZNLZ" "D"ADD "VIKLSKNKYB, OEHSHFVGBF" "A"ADD "NVYGJYSXWE, ZNWVJFCYSP" "D"ADD "SQKIWONJTB, DBEZTHWROH" "A"ADD "DBSYIABCCZ, GDJFNQHGDQ" "D"ADD "ESPFWOBCWC, AXFDWMSQSL" "C"ADD "YTRHDGVLAB, DOJRGEWEIC" "B"ADD "EXJFFTPNLF, SOPETWHTGU" "D"ADD "TLIJWDJDYZ, SWVZEKVEGU" "A"ADD "VRDHAMDFIV, LBPYBRBTQJ" "B"ADD "XVUGBIDTGE, ZKJXXNIGGN" "D"ADD "JIYTPGSNVR, UHMCEKCKPA" "B"ADD "ZKNMIQZNTV, IKXBRBLOOM" "C"ADD "IRPUNQFFBG, EYULPMCEWB" "A"ADD "UEGENGTGWD, IKHXZLDUVA" "D"ADD "ABSWNINDLO, XITTBUXIDT" "C"ADD "ASJHBGBHKS, IIWPETODVM" "D"ADD "ITJDRRTVBY, GPBLDLBDGG" "C"ADD "RVFXRXMXWZ, XDQITJJDSS" "B"ADD "YNPJRFITJP, VYDXQKUITI" "B"ADD "GRSKQDMSXX, MJXEHAKCHW" "B"ADD "GLSENZXQDC, ABCHZDLYLM" "A"ADD "CDHBADESVE, GRLWPCTBVU" "A"ADD "FALXCMUVUS, TYLISRAPUX" "C"ADD "JMHBMNJHJW, EVKNJEEAWI" "B"ADD "NOJZGKNHNS, MNAVWWXGWU" "A"ADD "BMWJBIQPTI, ZRBXSLLYRW" "B"ADD "PHZDKQUQZC, LMDQSJUJFA" "D"ADD "JBCRDVPBGM, SPCHFTBZTC" "C"ADD "URPCVISCRB, HTJHOSGTRF" "C"ADD "VARXHFCJEA, ZBARNRUAIW" "B"ADD "ZRXQUZGOWH, GMHLBFZXLP" "A"ADD "VLBAVDMPBJ, UYFJLHUKSB" "D"ADD "NJYUYZWIPR, EXCTBBOQZW" "D"ADD "BGYCHZTYGY, CNQNSDTQUA" "A"ADD "CKRUAUSQSA, TWPVGHVFTA" "D"ADD "ADWAQVVERP, NUUOJOQTZQ" "A"ADD "ZTPPWSRIOO, XWKDHTXHHM" "A"ADD "HUJBEHOOQY, RSJOHDUPEF" "A"ADD "TMSJEZMKJR, JIOIAPWUIL" "C"ADD "IDJPYCSLPM, NSKTYHFQQS" "B"ADD "STFRPCZMLV, DXKJTRQZMU" "D"ADD "PKVHQRKIUT, VFNIDGYZKI" "D"ADD "RDRCNBKVQK, WCMBJOXNSH" "C"ADD "LLACEBGIVC, HYCLFPKKFO" "A"ADD "HHCWYRNFOA, OTYYVTGBTU" "D"ADD "LYMDSWWNTH, NZLHSILRZA" "A"ADD "XFCOMRBVIQ, QONUCGRFJZ" "D"ADD "XVFBMHKRPN, SRGDDOUSHX" "C"ADD "NZJSNEGFOZ, SPQRZBFQJS" "A"ADD "KLYINKZPCV, YUFHAVFPGX" "A"ADD "JLXICSNXKS, VQMHNELTCI" "C"ADD "YSQOMJDIXG, EMLGIVILHR" "D"ADD "NJUMZGXXBU, ZPEDVEFVXD" "A"ADD "PKQJHLWWFJ, NUZNXEARIC" "C"ADD "VHVATXHNHP, JYDXGVLMOF" "D"ADD "FCTPNJQNIS, RGONINBQJN" "D"ADD "PXTOOYMJRR, HANHNOVAMC" "D"ADD "CWQQJGOCBW, ZTDWUICLGK" "B"ADD "UWFTLJRYJG, YGCQCINAFA" "D"ADD "IQRJLVXQYX, SRAMQVTBOX" "D"ADD "KGNNJHPLDR, BVYMMDUYKE" "C"ADD "BKQANPEEBS, TLYTUVQIVF" "C"ADD "MHSEBOSYYQ, IZUOMJMMVO" "C"ADD "PLEDZFGZEM, FWXBDABRWJ" "B"ADD "NKTNYRUWJH, TBPBBYRMRU" "B"ADD "ITNZVHKETA, TTIENEMXXL" "D"ADD "UIFWKROAJU, IWCYKERXGI" "D"ADD "IBXTMQUZEM, QPPSXEEYDG" "D"ADD "IMWIVRCQYG, WZKYQZEHQQ" "A"ADD "IMILSLUCGA, AGSEZQDJDA" "B"ADD "YSJIUPOCFT, RMUZHPLQLO" "C"ADD "JJWLOFDRDV, HKJCDYBNYC" "C"ADD "WGXCUFFGJC, JCLHXCZOVO" "B"ADD "FYMMKQBBSI, EGCHEJOCRW" "D"ADD "WNHYJTUHIA, WAOJQUQAUW" "B"ADD "EJZZKZFRPV, QVZBCFNPLC" "A"ADD "LQNLMBIFTM, VWBEEFTVBV" "A"ADD "CKCKJQEGMC, SVOUWYXUGJ" "B"ADD "NETACHDTFA, GLNGJAASUY" "B"ADD "HSRPJVEROT, IMFPIIQGZT" "C"ADD "HFTLVMYTRZ, RYEMCHNCTJ" "D"ADD "BCWAMZEFJS, NYACFECYKM" "C"ADD "EOFCOZNAHV, AUJSMOLGCF" "D"ADD "LNEKUYCTES, HCUTHPLPDB" "B"ADD "QPGCMTJSYU, CVCPNVCWAM" "A"ADD "PHZSWUCQUG, YPRKSSAQDB" "B"ADD "DESFLAIQVY, XWPRQBLVLO" "A"ADD "ZDBVDTBXCN, GILZJUZSZS" "B"ADD "KAKZCSQMHD, YFVLGUSIFY" "D"ADD "UBLZLNTLAB, IZPJMTWOJT" "A"ADD "TXIKGYHTVU, OIASHCVEZP" "B"ADD "IFQLJOSACD, SRCVUCLZCO" "C"ADD "ORWFEHLOOY, LLDGFNAKJR" "C"ADD "BQTHHLAPDW, UNEGVJVCWM" "A"ADD "OPBVKKASJX, PTUNMHLKBQ" "D"ADD "RIAASVDETH, QOJHDOOPKR" "D"ADD "NKLNSFJLKX, XOAFNYQFPH" "C"ADD "UXKJDFWGBH, BCLCRBSWNZ" "B"ADD "XZIHIPPUIN, TDOYJNBUGH" "B"ADD "ZKRWSBKBCC, NSAZSGZQBL" "C"ADD "BRWMQZNAHW, MYLRWGETSU" "C"ADD "GUCSBKZPBF, YYCYAOGLDO" "C"ADD "KLFWJDADHL, WZZTCCSYMZ" "D"ADD "WWWZCWZISQ, THAXKNFHKA" "B"ADD "MPWAYKQLOF, NDUAFMTFIV" "A"ADD "PBNKTABQII, RDFWTWUXSD" "D"ADD "MDURSXURYJ, OHSDVFMDYQ" "A"ADD "ZVJHJAOYAE, PBBUCTCPXV" "D"ADD "LUKHOQHFRB, SURNWSEKDH" "C"ADD "KZKSDHCDYS, ZJNDIOWVAY" "D"ADD "BDGSBJXHNH, JBPSYMQTXZ" "C"ADD "AZMOPNTRYX, DCPAJNZHPW" "C"ADD "GOCQTSNLVO, SGSNZWYYGJ" "C"ADD "HBZFROYPPR, KORODHZIIX" "C"ADD "OIRDSZSTRZ, HPBQSSHMJI" "C"ADD "VFEQZPRMHN, SQLWZQNOES" "B"ADD "RXRVJNORQF, NDAZYMAOLV" "C"ADD "PITPEYAJJK, RJFTJNPKYP" "C"ADD "SZKOKNTTJO, NONRAOFIZC" "B"ADD "KHNTMTKUUG, ZVUBVZWVSQ" "B"ADD "VXMZGHTBZV, NBNBVCVQKS" "C"ADD "WUMBXUNANF, ULVQRLQEQC" "C"ADD "VBQOPCBXVJ, OPUKIQBQHH" "B"ADD "HXBCKDCDHK, LXREBACTQB" "D"ADD "IPYSXUTJLC, THECAZASKJ" "B"ADD "GXCKPNGZJZ, EDYUQCCGFX" "D"ADD "PBMJOFSREA, FFMVEMGMQA" "B"ADD "TCVJKJYIPV, NDZJSPZEAR" "D"ADD "YFOEJSUYOS, UWZUFYQSJI" "C"ADD "ZOHEKHLWXX, IZDZKBNAMF" "C"ADD "RRDQBKAKTY, BKTPQYPUOW" "C"ADD "WJKYPOGGTH, TDWAFEKKFP" "D"ADD "WJSASPTXDH, AMNYVDFROG" "D"ADD "LKMHUSXTMW, LEIYNUTQMZ" "B"ADD "QTKFHJRFIS, MVTLEFJAGD" "B"ADD "SEWIKCUWIA, HTSFQQKJPG" "D"ADD "WMAQACLJAX, FITQXBGFIY" "D"ADD "DFJQBMIFUM, MPIEWXEVMW" "B"ADD "WMEFJZETCJ, FYQFHUKMRE" "D"ADD "WYDFPYCPOI, PRDHOIFGCF" "A"ADD "NFEDNSCDWX, JEKELHHKQJ" "D"ADD "SIVXLGRQQD, OYGELBLWJD" "C"ADD "QKCEQSZPNO, ECGSIDIAAK" "B"ADD "RJFGFTCZES, WJQMKXUKRU" "A"ADD "RJITGPRSJP, RMEXSXIFRY" "C"ADD "FZAIFNIQZH, ZSDWHVOAGG" "D"ADD "BLIOYFSRCV, NQIHEQALNV" "D"ADD "CNLUTBDHSY, IEQZUIFMFV" "D"ADD "YVLKQIRVHA, PRRCDOKRPQ" "B"ADD "MFHYCEPMZI, HERQJFSCLL" "A"ADD "GPCOSOONOV, NOQQTIHIVI" "C"ADD "DTRYLKLEPP, HLBZSELQPT" "D"ADD "KBHAUPFLFD, ESRFSQUCDY" "D"ADD "BAUEIBMMQN, PNNLDPFGGB" "D"ADD "VBCEKFQAAD, MRZASKJMHF" "D"ADD "SBSQPRGJON, LRESYVSUNL" "A"ADD "MNRAVYIFMN, QBQRDVJWRI" "B"ADD "ZIJCJMBJKF, YUWFXRXEQT" "D"ADD "HUIMDAAIVO, RYBUSKCZHM" "C"ADD "RKRHMZONZK, RKWEYBOHYW" "A"ADD "JKEPKNNQSO, FVEAXPLUUK" "A"ADD "FRWXTZNZOJ, VWUORGSZOS" "C"ADD "NUJHRNOZWN, MTICMPKKYY" "C"ADD "WLSRKKQFWJ, LXPUEFRUYC" "D"ADD "OAJUQXIKZT, ERMZIZJZHN" "A"ADD "SGIBJWOTFN, ESAOOZMQOR" "C"ADD "XNVCJNMAIC, UOKJFWPDYH" "B"ADD "JQLHLTRJHR, HRCMSZYQSU" "C"ADD "GLVGKNDDJU, OVAYVQRRRK" "D"ADD "NZWOSTRIRR, ZNPRLYOMUU" "A"ADD "YJPFUYBYUY, MRGDNBNZTQ" "A"ADD "ULSPRTSPXA, OLZRQZHGBI" "C"ADD "IVWYPJAXIB, RQIWLIQHEA" "B"ADD "KHRNZIMGYU, MTDARLKENN" "D"ADD "RPHRWCHSBU, MACVMMBHOV" "B"ADD "IIKEICYAFS, JIPSUBYGDN" "D"ADD "RCMTTZIOHC, SFCYQQIYZI" "B"ADD "DXTDLAGGNY, VYYOGCOWAQ" "D"ADD "WPAQCZUXWY, UFUYBNYKPS" "D"ADD "GQWEVCIZVN, JZWQFCVYKT" "A"ADD "MDQWKQZGFA, TJIXSUHIVT" "B"ADD "RQDVXXJZAS, PLGLDWOVGK" "D"ADD "HSUYEVCVWG, BURMGFLEZJ" "D"ADD "LEEPRWWFOJ, MEBMTFUHYS" "B"ADD "BGMZNBWNGO, RYFKJHEZCK" "C"ADD "ULQXRPNLGY, BDDNMYBSOH" "D"ADD "THZEGVUFKA, UCQSPGCIYZ" "C"ADD "RTJCLOBCBK, FMZRSHBTHX" "A"ADD "TGFFCCFJAD, EVEHMVDCLB" "A"ADD "XENIJPFMXI, YULFRILRJC" "D"ADD "FHQNAMOJED, VJJEPQJQJT" "D"ADD "KEMEODHOSK, ZLMHXTTTPU" "C"ADD "VDNEJSXSIS, LBBDJOEKIQ" "D"ADD "SLRSUEIIPC, PXQTDNUYYB" "A"ADD "KHJYDOWBOS, ACDIKUHDUD" "D"ADD "WHEXQNLLLD, NXRDFSJVNG" "C"ADD "UAKIYGVVDZ, XYCNABQGHM" "C"ADD "UOODAZCIKH, NOZECRPVGJ" "A"ADD "GXAHUTTRLP, NYENNVVOFI" "A"ADD "GKFPMQLIII, XNGJXLLJHL" "C"ADD "KWQOAFKAAB, VBAVQAQGMA" "A"ADD "UVNDTVTTYT, SATXZBRZCB" "C"ADD "EQFNPMQBVT, ELRNLMUFNT" "D"ADD "ZGFQDLYUBI, ADHHDMTNOR" "D"ADD "JRFPMQQGGQ, NLOJRXDMBJ" "A"ADD "NQHCVVRTKD, PMYKIBLEUP" "C"ADD "PPGGYUDBUC, TCNDDGMMRR" "D"ADD "XRINGFCONJ, NGUONTXASD" "B"ADD "XLSQRAIIWV, LARNBCGXWD" "A"ADD "WLWFJZPGDK, YDMTPRSAYQ" "C"ADD "CVTEUZVBMF, VMHBHTXCEX" "B"ADD "LDCKFKPPWF, LEUFMZCPKC" "C"ADD "VHHDAPAJVI, NMXDSPQCRM" "C"ADD "WIZZDCOPQP, OFTWWFVFKM" "B"ADD "VXWRDMZFIU, VLSKTCJLPO" "C"ADD "OAQNOTZDOY, RTVOMCFOGD" "A"ADD "HVQMSHDDVU, ELHSREFMUJ" "C"ADD "LFIJRQARCG, STXDBNWYAW" "C"ADD "AIUACFBDRK, ZSGBSVIPDB" "A"ADD "CBMHEJIEGA, TIIIFRJUSP" "B"ADD "WMPEFEQRLT, UKFAERNGVV" "B"ADD "NRHIGCBLXI, UAZOOMAGCN" "C"ADD "QYHTOQXBQX, IPVFJFCHLM" "A"ADD "MJZHKRNVFK, LYVBWTCYDG" "C"ADD "EJJJGORZOT, UNAPEVVTYE" "C"ADD "OPNGDJGXZZ, NRUXZIJWFA" "A"ADD "NPMGOWYVKU, YOZDXTXTFG" "B"ADD "DSZMEUCPYJ, IOEFTOQSJO" "B"ADD "YJVMAGCGDX, OZGRZBOKSX" "D"ADD "DUMLYLZIKC, QBLLUMYRCP" "D"ADD "EGDBDBEJKU, QCPEFGVALF" "D"ADD "YWZGHCHLRN, FGSNAMRAUT" "C"ADD "BFBSQRODRO, RISPOMAZPL" "A"ADD "LXUAJTDVWU, MASJULZNGA" "A"ADD "QTYVNEKQEO, QRJTRPNVKE" "B"ADD "HWHHWVIUJR, TZRAMKGGKU" "D"ADD "DQIPTNYIQP, RAJQIHKQHA" "A"ADD "KLJOMYERHU, UXWKRXQXHR" "D"ADD "VGZWUINWFP, YKPUPWJLAE" "B"ADD "PNLBTVHIHK, MUOFRAUVZZ" "B"ADD "EMIOHDCGUO, MEXQRPSKST" "A"ADD "VKPQLHOCPQ, RLLODUNETI" "A"ADD "WQWIRHGICO, WCSGSNNNDP" "A"ADD "LHHFMDDSEA, JVOPUIJZUB" "C"ADD "ZISADEOXGZ, THUNIPYPOK" "C"ADD "XDDWYHOPNC, RFBGPGGMPQ" "B"ADD "QGWLRRRPKS, FBPWTMZMPR" "A"ADD "JDGXWXLHVF, WMCLZIJTEZ" "D"ADD "KVWFOPNZJT, JWENQCMTUF" "C"ADD "SCAFSUDNVN, OFRLXAUOEJ" "C"ADD "OHYJEGZFUV, ZGDRCBADOZ" "C"ADD "JZAAAPWZHL, DCNMWBRUOJ" "C"ADD "JUAKWSZFLX, VICPVSJHAJ" "C"ADD "JSPHTQAEST, KRRZQVNJCL" "C"ADD "SICORXPXKL, CUGWAEMJLA" "D"ADD "IDIUSAHOWT, GKTLDSJHNE" "D"ADD "HFYRXLCTGZ, FISXCQLFVV" "D"ADD "LAVFHWEHGG, QMGMEDPOOY" "A"ADD "ZRRPPQTFUK, QDHNNYIDDP" "C"ADD "XGVVRQBWVM, FBJHFCIWRC" "C"ADD "GRANQDINXE, JLTCVUZCEY" "B"ADD "UDKYRAPGNM, WFCKNVRBJJ" "C"ADD "XCQNPBRBNM, ROBPKEZNEJ" "D"ADD "XJKXRYUDPL, IBSOINARYM" "C"ADD "FPHJKEXNFE, WSDQFPAIBS" "D"ADD "GKOZYDEZMQ, WPKMFJBXBC" "C"ADD "OIPSKDEBUL, ZEPUBAUJTD" "C"ADD "VOGJSMRCAY, PJCOSOVOBE" "A"ADD "CMZLTNSOLM, QZFBYSZKXA" "A"ADD "XGSSMKJBQT, HUNFILXOMH" "D"ADD "AQMBXUQHHJ, UDGVOFLLSJ" "C"ADD "KPSMSKASYC, TNTYFFVSMS" "C"ADD "HHFQASAQNK, FPWESMASJC" "A"ADD "TFEUMAFVCT, MMRRHOMXWX" "D"ADD "AHBPFJTBLD, QDTAANXQGY" "C"ADD "JKGALQHBWS, CDGAIKUSVA" "A"ADD "RZPHCRDYPX, ECDAEPHYOV" "A"ADD "ZSJTPVKGTY, GMCWTPCJNM" "B"ADD "CXKYACXHYR, LWSJGFRKBV" "C"ADD "WGFVFHDRJP, MHPVQQSJNO" "A"ADD "CVZVSIBTFB, SOFIKVIBKG" "A"ADD "FQFDXHJLRN, NIQKOYNAYU" "A"ADD "ORGKFTSZYD, RJWHTABFKH" "B"ADD "ENNOCAENNH, KPRRFOEHAB" "D"ADD "HQRNROKTSR, VSGUMSGARQ" "D"REMOVE "DZGKPPWYSW, OPTTWMIDXL"REMOVE "WJXQZQHFCX, PAZBTECAFR"REMOVE "YFJCKBGKGM, QWKNAPYBHB"REMOVE "BJJRARDBPU, XNBMXYRPYV"REMOVE "HLHNSBSJAP, EDOQUFJVKA"REMOVE "WUMBXUNANF, ULVQRLQEQC"REMOVE "VDNEJSXSIS, LBBDJOEKIQ"REMOVE "TZAOTBRZFG, JAKRQWULWX"REMOVE "ODGOGZLVGJ, XHXJAVNFSQ"REMOVE "ZCUWMUUCTM, XCLSSZPHNF"REMOVE "LZVWQAJHYS, TFKPJWYYEA"REMOVE "FQFDXHJLRN, NIQKOYNAYU"REMOVE "QPANMJOBLP, FVIFRXDDAT"REMOVE "VRDHAMDFIV, LBPYBRBTQJ"REMOVE "MBDIEFWVXX, QTPZGHHJHH"REMOVE "GKOZYDEZMQ, WPKMFJBXBC"REMOVE "CQKMJKVOTU, WGEUGALHIC"REMOVE "HPSSDCEBIZ, UHTYFBCIXH"REMOVE "IRJCBUVPLS, RQRLVZRHKR"REMOVE "QVKYWLDVCJ, VGOYFPGHYT"REMOVE "HVUJGELLBY, ZZLNRCAMPQ"REMOVE "UXKJDFWGBH, BCLCRBSWNZ"REMOVE "OUPMMFNQFR, UGWJEUMTIW"REMOVE "NHSLFYQURO, BZIAIWSYGK"REMOVE "AIUACFBDRK, ZSGBSVIPDB"REMOVE "NERZATJRRP, QNZSZCRPPW"REMOVE "HBZFROYPPR, KORODHZIIX"REMOVE "XRVSPPTGMZ, PJDMBHKQUW"REMOVE "RDVKIWFMZQ, OTYLNQVDSW"REMOVE "YSQOMJDIXG, EMLGIVILHR"REMOVE "VXMZGHTBZV, NBNBVCVQKS"REMOVE "GLVGKNDDJU, OVAYVQRRRK"REMOVE "QVWYVYCXTU, KWJJMPLPWU"REMOVE "EVMCSJDMXZ, HMBROPKRMV"REMOVE "RFVJRVIWBG, DDGNEBVJNJ"REMOVE "CBMHEJIEGA, TIIIFRJUSP"REMOVE "ECELBZBIAW, UIUPKXGQHK"REMOVE "PGFEDSXNQU, VGOMPYODBT"REMOVE "PWNVMLAQLX, ABRSLWLOJK"REMOVE "ASNGJQBQCK, JZZBFNLATL"REMOVE "FJHVIASYKW, FVGIOQPHLC"REMOVE "VZXSDFEORH, RQKSHNAHCC"REMOVE "KLYWUNTSZZ, QBWENWGJBL"REMOVE "VYGKRHWSNA, HBQRCWRUFK"REMOVE "LLPOUMMPCS, VJCUWGMCLP"REMOVE "NPQALJUCQJ, HQNNTEGNCH"REMOVE "CKRUAUSQSA, TWPVGHVFTA"REMOVE "LWDZNDGZMJ, MMEIGVPZCC"REMOVE "WYAZKJGSLN, YNNTLBNHNI"REMOVE "GPEFRJYRSU, XQNVCGYYAI"REMOVE "FPHJKEXNFE, WSDQFPAIBS"REMOVE "NWEDFSWVFJ, FCFQJYCAFY"REMOVE "MDURSXURYJ, OHSDVFMDYQ"REMOVE "UWBFWULTKJ, USYNQKUDSJ"REMOVE "CRKGDRMLYY, CCNINWIWHA"REMOVE "GXCKPNGZJZ, EDYUQCCGFX"REMOVE "HSUYEVCVWG, BURMGFLEZJ"REMOVE "VKPQLHOCPQ, RLLODUNETI"REMOVE "TOADYHYDRC, BAULMAZCBY"REMOVE "TLIJWDJDYZ, SWVZEKVEGU"REMOVE "VRWDBFRAPE, LRNLHKMZAD"REMOVE "SICORXPXKL, CUGWAEMJLA"REMOVE "JLASIQRPZI, ONALJUYLQD"REMOVE "CHYAGUSAMM, IDKQDGMJHZ"REMOVE "DQMUNGEOVJ, YBOIFSYTVR"REMOVE "JBFPOAPSXK, PLMJGUPFTQ"REMOVE "YDCNPJZCKF, QJBMLBLXNB"REMOVE "TXODWZXCQL, AFCOEICBXY"REMOVE "LIQUGCBLEE, SBYMPJHBQV"REMOVE "HZQQFHWWKH, FQIKZTSKIH"REMOVE "SBFFDCMEOH, VSPXXKBKIQ"REMOVE "DUOJCURLJZ, WRZPJQDMVZ"REMOVE "HYULKHZJGT, MALRSKCTYJ"REMOVE "MDQWKQZGFA, TJIXSUHIVT"REMOVE "DEHYPPTYRZ, BZXVZSUGSH"REMOVE "HGIUNELPQR, SLYMJNFJUO"REMOVE "UOTWFFVYWU, YXKDOTGMKM"REMOVE "QFGHBVBZWJ, JYBDPLROEW"REMOVE "PHZDKQUQZC, LMDQSJUJFA"REMOVE "UVRHEAVOMI, AJYKYJYLMN"REMOVE "KOGOJZEGAZ, NFHBZGTPEL"REMOVE "SIAZVCCMZC, RBQMNWUXSM"REMOVE "FRWXTZNZOJ, VWUORGSZOS"REMOVE "MAEFOJYJTZ, FQLEKYWEXF"REMOVE "UUJUSYFYGJ, DTMCDCCQDW"REMOVE "MTUPBCYZOR, UEZWCRCUYS"REMOVE "BLIOYFSRCV, NQIHEQALNV"REMOVE "IDIUSAHOWT, GKTLDSJHNE"REMOVE "WDBCOGYXDF, GTUWDUZELM"REMOVE "GWJZDBUAUE, WICZTNVHXW"REMOVE "ZVOUDSJFEF, MVGFKBMBGN"REMOVE "UHOTMMKFTL, VOMUPZIRAB"REMOVE "WJSASPTXDH, AMNYVDFROG"REMOVE "LHUJKZRDJX, ELETWZZHMX"REMOVE "PLEDZFGZEM, FWXBDABRWJ"REMOVE "KWTPJHDNDM, ARIOYEBPMT"REMOVE "TMAJCONXIR, QAOMXIRCKK"REMOVE "RLJDYEZMNU, KQXKCTYMJO"REMOVE "ETJYBQSXNR, XQQWIJNIGQ"REMOVE "KQBMTUVUXA, JHWEDXDZYN"REMOVE "CYKLCEUXGH, YRVPBBWNCC"REMOVE "KXYDELWTYS, OXSPCXRZCN"REMOVE "OPTMFMNXST, UAZZRCZUZS"REMOVE "OPBVKKASJX, PTUNMHLKBQ"REMOVE "OHFBIRKLBT, EYBMRWLIKQ"REMOVE "HHFQASAQNK, FPWESMASJC"REMOVE "BIOYWNBBBL, MDXLUQQSOY"REMOVE "CUHIKPQAGZ, PUWAMMOPKK"REMOVE "CNOBPVRYHV, SRITZMUBVW"REMOVE "DPZRSOSPQY, RLWQYGOWNT"REMOVE "DUMLYLZIKC, QBLLUMYRCP"REMOVE "IMWIVRCQYG, WZKYQZEHQQ"REMOVE "ZVJHJAOYAE, PBBUCTCPXV"REMOVE "KALHIQWPWA, IUSMGEEUEZ"REMOVE "RCNZUPUAPQ, UXFWRGEQSQ"REMOVE "EUDZCIISEF, LPOBZODRLQ"REMOVE "VMIGVVHXWF, YDLPNGFZYV"REMOVE "ZPQLGULETL, ZQNABZGSJU"REMOVE "RTJCLOBCBK, FMZRSHBTHX"REMOVE "UOODAZCIKH, NOZECRPVGJ"REMOVE "KLUNLDATNU, HTPJBRFKXM"REMOVE "PXBEXELLMJ, LCBCJQBGQI"REMOVE "LHXMVAEION, HMQPHLVGDG"REMOVE "OAQNOTZDOY, RTVOMCFOGD"REMOVE "AZMOPNTRYX, DCPAJNZHPW"REMOVE "IXGDBVDZVB, HUDUIWNLZN"REMOVE "GMEZGFRWAN, LDINLHDHQL"REMOVE "XVFBMHKRPN, SRGDDOUSHX"REMOVE "NAFDRWGIBW, BSSLQWPDHK"REMOVE "EQRFMIYTTG, DOKLVTYANU"REMOVE "AASHLKFAAJ, AQEQSDJSLF"REMOVE "VVIMDRBMKD, UOCVILXFDG"REMOVE "KOHECRKYZX, XXQBQEQGGV"REMOVE "THWBGCPIXB, ALIMILNXNU"REMOVE "GDOJEVVIHB, SRPBMVMGIB"REMOVE "LPYANZYPAR, LZZOGWRDRH"REMOVE "BDGSBJXHNH, JBPSYMQTXZ"REMOVE "VHVATXHNHP, JYDXGVLMOF"REMOVE "PFVLUGQHGV, AZBYIICZFZ"REMOVE "RTZEMPLGHW, KRHVQKGJIQ"REMOVE "JMBAUHQJDP, RVCUMGBRMZ"REMOVE "CLOKNHUOIY, BIQIDJJRSR"REMOVE "IDJPYCSLPM, NSKTYHFQQS"REMOVE "GUCSBKZPBF, YYCYAOGLDO"REMOVE "DQIPTNYIQP, RAJQIHKQHA"REMOVE "SFMPTABRMX, URWECXXUBH"REMOVE "EGUHQKFCUW, FLKDABAHDI"REMOVE "LQDBARXZLL, XNBMGZAJLX"REMOVE "EQFNPMQBVT, ELRNLMUFNT"REMOVE "CDHBADESVE, GRLWPCTBVU"REMOVE "NFEDNSCDWX, JEKELHHKQJ"REMOVE "OQYBRVRMIK, VHWLSSJHGX"REMOVE "SKHXHHCTFY, PWPBRSAURN"REMOVE "EMIOHDCGUO, MEXQRPSKST"REMOVE "ZHUUASIGDU, RXZNKEDVCH"REMOVE "MBBMOSRERB, FNPPAVHMFN"REMOVE "RYMDPKDEBV, FIMDMEUMBM"REMOVE "HKBPCWIRXU, WSKGHLHZPX"REMOVE "JMFIZRZJET, FYIAYJGYVO"REMOVE "XUDVYRTRVD, RCHQKRQLXE"REMOVE "HSRPJVEROT, IMFPIIQGZT"REMOVE "KVWFOPNZJT, JWENQCMTUF"REMOVE "YVLKQIRVHA, PRRCDOKRPQ"REMOVE "MNLLHPNTCG, LPUBAFMQRR"REMOVE "IFZSXJVCIU, DKKBXERUWE"REMOVE "YJVMAGCGDX, OZGRZBOKSX"REMOVE "VBCEKFQAAD, MRZASKJMHF"REMOVE "TECKOXIGVW, XOWSCXTHTS"REMOVE "MFWPOKSCHW, JJTPMMUZNZ"REMOVE "EZVJZCUNCI, IOZPDXQSLF"REMOVE "JPVFNILQRX, IBDTTMXUJN"REMOVE "KYOCRYICCS, QIGAPSASLT"REMOVE "JHXLIDZXQV, UFISNNVNJK"REMOVE "JYGYPHKEKO, UAXIFVANXA"REMOVE "FBZQKJVSIV, TIWCKINRIR"REMOVE "LLACEBGIVC, HYCLFPKKFO"REMOVE "JZPBKVZJEX, AUGXVEPSXJ"REMOVE "PKQJHLWWFJ, NUZNXEARIC"REMOVE "FKYVZAXOLW, XRWTMHBLVI"REMOVE "NIXCYBGWPQ, JHKQUYQVEP"REMOVE "XOKWVKJAKV, EOTPBIAIKB"REMOVE "HWHHWVIUJR, TZRAMKGGKU"REMOVE "ACNABGNVMG, KANNJCBCDP"REMOVE "LCQXJAWWSL, EZXQISGSFH"REMOVE "CXTFJYZJPM, YFDHBMUHSY"REMOVE "EIPTZYCEJW, CTTWZBQOUT"REMOVE "JHSQRSQUMQ, VZNKKXYOKF"REMOVE "VLBAVDMPBJ, UYFJLHUKSB"REMOVE "QJYEUESEBH, VMXHPMIRAN"REMOVE "LCPHCRNTZF, BUOZITYMXD"REMOVE "PHZSWUCQUG, YPRKSSAQDB"REMOVE "VYYZOPDECF, GJJGXCMMRE"REMOVE "GADOHYOPZF, NKWXJVNMGB"REMOVE "LEPSKLOGUF, RKSZARVBPS"REMOVE "MEOPAJREAR, NCEJNNWJIB"REMOVE "FZAIFNIQZH, ZSDWHVOAGG"REMOVE "OLESGJOLPW, VAHRZDIUGD"REMOVE "PYBHQHIVLK, FQMSWPKUVW"REMOVE "IRVNSJIZKJ, KNUNSULPTI"REMOVE "EJZZKZFRPV, QVZBCFNPLC"REMOVE "XRINGFCONJ, NGUONTXASD"REMOVE "AGGMIUZGIN, LRCCHBHIDO"REMOVE "QIFHKSNLJF, FHWUBQDQPC"REMOVE "PXTOOYMJRR, HANHNOVAMC"REMOVE "EGLXHJFRVL, KTJQFWJPSL"REMOVE "FYASNYODQK, DDMVQDHUSV"REMOVE "NUJHRNOZWN, MTICMPKKYY"REMOVE "JEINNHJBYJ, BBGPHSHHLS"REMOVE "EEMYNHZTQU, BVYJMQLXLY"REMOVE "LEEPRWWFOJ, MEBMTFUHYS"REMOVE "KPIGMNNPPN, RQOSYNJSYD"REMOVE "GUPLWRKBKU, KBRSXFDBUX"REMOVE "EOFCOZNAHV, AUJSMOLGCF"REMOVE "XRVSAJJGAQ, FHYRSCXPEP"REMOVE "ZVJELWPLIR, MIHQOAMCQP"REMOVE "FYMMKQBBSI, EGCHEJOCRW"REMOVE "URPCVISCRB, HTJHOSGTRF"REMOVE "BIHAGYLVMO, NRGEXZHKGF"REMOVE "VGGKESGJFM, YSOLSCKTOE"REMOVE "AXICTRVNVK, EFPVDGPPUI"REMOVE "WJKYPOGGTH, TDWAFEKKFP"REMOVE "ASJHBGBHKS, IIWPETODVM"REMOVE "RMFWOKWAZU, QJGXLUJSUZ"REMOVE "ZSPEHGQSLT, NKHTGNEJQW"REMOVE "IMILSLUCGA, AGSEZQDJDA"REMOVE "DFCPELVKSY, PXCPLWNNLR"REMOVE "ONTNAVFTLQ, WSPHOGYNHA"REMOVE "MVVVVSTWEP, BMWVEUBCAI"REMOVE "NQHCVVRTKD, PMYKIBLEUP"REMOVE "VARXHFCJEA, ZBARNRUAIW"REMOVE "KFYTWYPNJR, ISYNZEUTBN"REMOVE "LTMYYUCDAO, IWZVHIUCIB"REMOVE "AYDVQNGORL, SPTXWRAOYH"REMOVE "FQYLDDXSRR, YUYERELKSN"REMOVE "DWOSAALHHZ, VNUXLYOTWD"REMOVE "UYVJZYAWMF, MMFTZCNEJX"REMOVE "UVXJYAUEMC, QAKGRUGSVA"REMOVE "YGVOENMLYF, ZGGQAYFYXT"REMOVE "JUHACFGBPB, MIAJJIWVYE"REMOVE "IERSIXJUHF, ZJXLRDUWBY"REMOVE "MKAZFUZZKO, LXKYKRUMPB"REMOVE "VACXVVZCZE, JMIYCRQWNE"REMOVE "WTMOGPAOZR, KQONRAMWCD"REMOVE "UAKIYGVVDZ, XYCNABQGHM"REMOVE "GFCOYLMXJV, JBVTLRVNDX"REMOVE "YCGXIROMZX, TCSVJRRGVW"REMOVE "OMOMGKDIDK, RRHNEMEWTC"REMOVE "ALUFRMSRQK, BULMQRHGTG"REMOVE "OPKFPGKDLA, MOTJSRJCYZ"REMOVE "HYKGBTTPJX, NPUOTFHLOS"REMOVE "ZHTJVXOWCI, YZSWJLLEYV"REMOVE "NEKQVBJLYF, KQQASXUJBA"REMOVE "IDMXBKWAUF, CMZUQDPPGO"REMOVE "PTJJDRBRXP, NMLLJRXCYA"REMOVE "KISWEMRLPL, ZOIQFDUXJB"REMOVE "QVTAHWDPEK, FEHPBNDPTW"REMOVE "ZVTEELYSXB, YXHBHSRGPZ"REMOVE "BILPIMRNIO, QEPFXOLDGA"REMOVE "PFFSLAFIEQ, COGHAODVUA"REMOVE "BMGURRIVPB, BAZRUIQCEF"REMOVE "EXJFFTPNLF, SOPETWHTGU"REMOVE "SPABQJPELJ, QAFFEQGCNT"REMOVE "MNRAVYIFMN, QBQRDVJWRI"REMOVE "ZSWXSEMTMY, LIGDHGYWCR"REMOVE "KSBKVBQHVQ, LPCKKQONLA"REMOVE "JILPWYWUAM, MDABTIJPBH"REMOVE "MOYGFYHKBX, KVTUBTYFXK"REMOVE "GPEAJFXMRN, RGFFTDEASZ"REMOVE "SSEJOVBMVK, TZBTDRTIXL"REMOVE "NNHQTTOBVS, BJZLTLCNRE"REMOVE "SZMYAOFGKI, ZCMVNDQTNO"REMOVE "AXYSXXVEZD, AKKKGGNVOJ"REMOVE "KLJOMYERHU, UXWKRXQXHR"REMOVE "NULIOMQJBL, LAUNYTHVXO"REMOVE "RRDQBKAKTY, BKTPQYPUOW"REMOVE "MJZHKRNVFK, LYVBWTCYDG"REMOVE "EETKYWNFVK, TMIDDMFWFY"REMOVE "XXSRCZVMLB, CAIIFPPLHF"REMOVE "DKKGUWBETQ, TQDNECTBUN"REMOVE "IHQSWOECJT, NVFTJRDRZO"REMOVE "LRUNIYATVQ, AKEMWEDPRV"REMOVE "VKPRTJXPRP, TRDTRXNHBB"REMOVE "EGDBDBEJKU, QCPEFGVALF"REMOVE "WBYRWPTSWI, VFJDFXIHYY"REMOVE "TRPTZPFTCO, MFSYJZZPYW"REMOVE "ICSJJBCHIE, ACGBROCENZ"REMOVE "JIKSFOLOBK, GWLCMXVKHG"REMOVE "DLMDNDOYZB, OYXKZWONCG"REMOVE "HHZJNPJUUE, URGHKOOPBA"REMOVE "PSQEKHYXCJ, GNZIHDDPWH"REMOVE "ABIDJPNNUJ, MLXNCEKTYM"REMOVE "XQVQFATEKK, PSUKOUABWB"REMOVE "JIYTPGSNVR, UHMCEKCKPA"REMOVE "WMPEFEQRLT, UKFAERNGVV"REMOVE "ZVVXIDNCWU, OXKAHMZBLV"REMOVE "HYFSJSFIFA, QOXSNPCXJM"REMOVE "GQYLLWZEKT, ICUASOOQMG"REMOVE "JGCKJRQFIV, HOBDKGIHJQ"REMOVE "YENMQDUYVX, OBJDEROHEB"REMOVE "AFNDLKGMSV, MABAKRKKJY"REMOVE "QYYRFCAPIU, ZQAXFDXOKD"REMOVE "UBHAVZMBKO, FUXTIZTHJH"REMOVE "DKAZQIJGMP, DJHPDDMKHT"REMOVE "ZYFEHPZYMT, RYUDFRBRBB"REMOVE "TWXSJPSUNH, GJOAKTEZCC"REMOVE "JPNAASLFWU, BIQVFLGIXR"REMOVE "VYYKQYAMRS, STBWTUPVRO"REMOVE "GQWEVCIZVN, JZWQFCVYKT"REMOVE "TCVJKJYIPV, NDZJSPZEAR"REMOVE "HOVIYWAITG, MMDEPHWZIY"REMOVE "WHWUGSBIWI, UKZQHFYGTP"REMOVE "OHYJEGZFUV, ZGDRCBADOZ"REMOVE "WSYLTFZFTM, NFOJAAUWDW"REMOVE "JZAAAPWZHL, DCNMWBRUOJ"REMOVE "PXTVAWBPKA, LQOGEWFSUF"REMOVE "TGNBAABXUV, LRVITDUHNX"REMOVE "KNIBYNCORC, TWBKZBTQAB"REMOVE "YHQCXNNQZF, QJYIUWTZND"REMOVE "LPTWSHFVWP, JVGODRFEOH"REMOVE "ZUSAQZSOQB, MDVQJHEISU"REMOVE "ZGFQDLYUBI, ADHHDMTNOR"REMOVE "DBYPZUZWHT, CQKZHEKBCT"REMOVE "WHUGDZPJCD, JIDBAGQGTW"REMOVE "JNKOMGNNJO, WXVNHKTQIN"REMOVE "LEVZWYWBWN, LPRYAYHYZV"REMOVE "FJLOMIXGDB, FEHLKANGHA"REMOVE "FRFWZNUQVT, MVRBBVLLEL"REMOVE "WYDFPYCPOI, PRDHOIFGCF"REMOVE "WSGOQVYLLX, YXMPKGCIWB"REMOVE "KKGBJXRFZZ, FYPSUVTUHT"REMOVE "VKIROBSYVX, MBTNXVQCLR"REMOVE "FWKCRLLLSJ, JQANCVIFHK"REMOVE "VXWRDMZFIU, VLSKTCJLPO"REMOVE "HHQHTDTUXO, KUTYQIBLQJ"REMOVE "YOJPPHWHCN, SHWSCZHJRP"REMOVE "LGQNAAQAKX, DIYLVTVFTO"REMOVE "BEOVCMEMIR, GTVBPEVLWV"REMOVE "KETJZLDNEH, KLCGPQMJOW"REMOVE "ZOHEKHLWXX, IZDZKBNAMF"REMOVE "WIZZDCOPQP, OFTWWFVFKM"REMOVE "SMSMEJCACU, NTBEHCQSXA"REMOVE "WJTQWDWXWF, XMFWVKDNOK"REMOVE "SBSQPRGJON, LRESYVSUNL"REMOVE "HZEQTGEXVQ, VXUOBWDGBC"REMOVE "HDSUGCWTLB, FRHXTPTDUD"REMOVE "GOCQTSNLVO, SGSNZWYYGJ"REMOVE "LHHFMDDSEA, JVOPUIJZUB"REMOVE "MHSEBOSYYQ, IZUOMJMMVO"REMOVE "SNWSWEPVLN, SCCEFBWDQU"REMOVE "STFRPCZMLV, DXKJTRQZMU"REMOVE "DLCVRUQTYR, AGNJVQYNBE"REMOVE "ZBIPMWZECC, KITYHSYTLC"REMOVE "GRSGKRWGAL, AFKDMHPRCT"REMOVE "VXJUFNMSGN, AGGKLTGZPV"REMOVE "OKLRTDKYLM, WMQABMDSJD"REMOVE "RCADXHJMEU, PAWLUVZXFJ"REMOVE "QBVDOUXLXK, GVWAAQWUGI"REMOVE "VGGSXTPIIO, FZWWYWXZTE"REMOVE "VBELHQFFMZ, MFWXEJWAIG"REMOVE "HRNTXRPBBQ, GFVENBHOXW"REMOVE "CEYPOPFEHT, BOMVUPTPDL"REMOVE "TKHRIUKNYN, SLXSXKWYAO"REMOVE "EJJJGORZOT, UNAPEVVTYE"REMOVE "PVTHXVSWFY, ZBJKWAXEYU"REMOVE "BTHXOEHZHQ, ZSNPFZVMLF"REMOVE "JUAKWSZFLX, VICPVSJHAJ"REMOVE "MWXGGDTUZB, RQSHRLNYDX"REMOVE "VOGJSMRCAY, PJCOSOVOBE"REMOVE "JWYEVEXYZM, BVHHRWKOCF"REMOVE "UCWURBJPMA, FDHABCLDNX"REMOVE "BGMZNBWNGO, RYFKJHEZCK"REMOVE "NMVBKZSIYK, JMDOJEEZWN"REMOVE "ZKNMIQZNTV, IKXBRBLOOM"REMOVE "KLYINKZPCV, YUFHAVFPGX"REMOVE "JKGALQHBWS, CDGAIKUSVA"REMOVE "QRKEYSQHCS, DXBRGEYUCN"REMOVE "LQHKTHSXAR, ZVWFAIYGIW"REMOVE "IVNRAARSUE, SSFATGGWQR"REMOVE "AREFGLSFGR, LTUBXTFZPM"REMOVE "HUIMDAAIVO, RYBUSKCZHM"REMOVE "ZMJNMVJYCH, EXJKHTAGQY"REMOVE "MTFVYYVOOP, PNFPZIOGUE"REMOVE "AWCTFPVFAM, GEFXZQPVZY"REMOVE "RDHKRMTTPA, HKWCVVRBDS"REMOVE "JKEPKNNQSO, FVEAXPLUUK"REMOVE "HIIOPHLGVU, TWAHHRQAZD"REMOVE "PMHJGTBJCY, YGNFRRUUGA"REMOVE "OAAGTNYTVR, ACBIPIIJMG"REMOVE "TFPFJZVRUS, TKEFAKZNTF"REMOVE "RJCVSFMVSJ, FVAVFHWENV"REMOVE "KCUEWJWFQE, SVEJEUHYOA"REMOVE "AFSEUVIMLD, LTDVAGDVZH"REMOVE "AEMJTHQNCS, YYTYMWQTXA"REMOVE "NCEKKEITJZ, PODXRRKRWP"REMOVE "REHWAHPLQY, FOILYPKWSA"REMOVE "KWCYSGFWZK, TSRGCFOSXQ"REMOVE "WGXCUFFGJC, JCLHXCZOVO"REMOVE "DKJZIQDBLU, IQVQPPJMJQ"REMOVE "MGSEDWSVES, EVPIUNEKAV"REMOVE "TFEUMAFVCT, MMRRHOMXWX"REMOVE "HBWDDSZIWS, LROPMIIXDW"REMOVE "LYFGYKUORZ, USLEBWLFUL"REMOVE "UWFTLJRYJG, YGCQCINAFA"REMOVE "IPZAOATXEA, UZZANTEMQC"REMOVE "ZIUYGZFFNV, ALUEWCYAWF"REMOVE "NZMJHRCGHX, QQQBFUSZIM"REMOVE "WQWIRHGICO, WCSGSNNNDP"REMOVE "KQWMIHJQHM, XDAYCMDQBI"REMOVE "KGUHIOFGXJ, HQJPMHBBSC"REMOVE "UJLSHLWAZD, OAWXSUAARM"REMOVE "WWWZCWZISQ, THAXKNFHKA"REMOVE "AZEYXFMQKQ, RJUEDKXMZY"REMOVE "KBKZZAGFQR, KGKQIQDIQV"REMOVE "ALPKHDETKY, HTQSHLNKVY"REMOVE "RFWEUVZPFQ, IJMXMTSLCW"REMOVE "OIRDSZSTRZ, HPBQSSHMJI"REMOVE "HFTLVMYTRZ, RYEMCHNCTJ"REMOVE "CXKYACXHYR, LWSJGFRKBV"REMOVE "FSZEAKIIPN, TVPBICNNDC"REMOVE "PITPEYAJJK, RJFTJNPKYP"REMOVE "NCGYQXNYRG, AMLXFNPPHP"REMOVE "SLRSUEIIPC, PXQTDNUYYB"REMOVE "BGYCHZTYGY, CNQNSDTQUA"REMOVE "NPKJSELESI, PVPBLSCWUJ"REMOVE "WMEFJZETCJ, FYQFHUKMRE"REMOVE "KZFOJEEBJW, SYJSFEOABL"REMOVE "WLSRKKQFWJ, LXPUEFRUYC"REMOVE "LYMDSWWNTH, NZLHSILRZA"REMOVE "WBVAUNBYGY, UDNVFIZBJE"REMOVE "BPOBQWEZSA, ZHYKSUQBNB"REMOVE "SLBZTBDELZ, XKBQYCUDUZ"REMOVE "LQXYEFDIKB, FQGYMYZMIU"REMOVE "QQLVIKHARX, WJWZWBDVUG"REMOVE "JRFPMQQGGQ, NLOJRXDMBJ"REMOVE "PBMEXTCUKF, HDYUQUMCML"REMOVE "MJHBQNCWPO, NMDPYDXYHL"REMOVE "YJPFUYBYUY, MRGDNBNZTQ"REMOVE "JSJNIDEXAP, FXJERSGWNP"REMOVE "PKVHQRKIUT, VFNIDGYZKI"REMOVE "ACFZWVFZSW, ESXHJPZBPB"REMOVE "YLSKYCEAQQ, PBBERRDNMU"REMOVE "BMQHBOGBIU, HTVUSNBJCS"REMOVE "CAATDGEYKC, OUHIWPCJPX"REMOVE "MDSDKBPUNH, YEGERXWZXY"REMOVE "VEVDSOOUTC, DZDZIICIKM"REMOVE "VBKFSCARNK, CFGDJFMYBF"REMOVE "QHOXAMPZCO, DBBVEENRZW"REMOVE "DVMKGNBZCW, CTXWIASLCK"REMOVE "EUVCPOWEDT, GTVUIXDKDI"REMOVE "LAVFHWEHGG, QMGMEDPOOY"REMOVE "ABSWNINDLO, XITTBUXIDT"REMOVE "UIFWKROAJU, IWCYKERXGI"REMOVE "LBBJWMVIMX, NILXWCMLRG"REMOVE "XNNFZXHXHR, KFIQYQIJGN"REMOVE "FEPBYSJJAX, OZZOXDPHTY"REMOVE "DZSPRQNLKL, HYVCXBGAGG"REMOVE "XJVEUKRLBT, RKEJPPLVLF"REMOVE "VELBVJVQQZ, OYUNODVGMW"REMOVE "UVNDTVTTYT, SATXZBRZCB"REMOVE "YXEPGZTTWS, ZLFPEAVBXO"REMOVE "WJIWULQDGA, HBLTSTVRKY"REMOVE "QEYNYVMORT, RGLTCJPHKX"REMOVE "BPKQPYCJHX, YHWADRTPED"REMOVE "SISZHWCVHO, JEZVYIISIP"REMOVE "NVYGJYSXWE, ZNWVJFCYSP"REMOVE "XAZJIHHRBS, AIKRYENLTO"REMOVE "FWIOTAGXQA, ATNNJGTCUG"REMOVE "SBFPRGBTIZ, ERXYVHMLIG"REMOVE "DSZMEUCPYJ, IOEFTOQSJO"REMOVE "WXQKTRLPRD, MARQOIUBZO"REMOVE "LUYXKRODSX, HJXKSNOYNJ"REMOVE "GLSENZXQDC, ABCHZDLYLM"REMOVE "ZDBVDTBXCN, GILZJUZSZS"REMOVE "EOPJRMLEIH, SHOULCAVRY"REMOVE "QGWLRRRPKS, FBPWTMZMPR"REMOVE "JMQAPLDHRE, PISMOGBTWJ"REMOVE "RCMTTZIOHC, SFCYQQIYZI"REMOVE "TUJEZFJSXU, YZLTIHAISJ"REMOVE "YTPEMOPMJK, MUYKAUPVFF"REMOVE "RZPHCRDYPX, ECDAEPHYOV"REMOVE "ULQXRPNLGY, BDDNMYBSOH"REMOVE "CLKEXUORNX, GRUBFMNSSJ"REMOVE "RIBQFNBGNE, GBKUYSSVAX"REMOVE "JETZIDQPKA, RIXPQMTCYK"REMOVE "QYHTOQXBQX, IPVFJFCHLM"REMOVE "LJDAAGDFZM, JMMRGJULSI"REMOVE "VIKLSKNKYB, OEHSHFVGBF"REMOVE "DWQBHQSYQR, WBGVSYWCHP"REMOVE "GXAHUTTRLP, NYENNVVOFI"REMOVE "OPNGDJGXZZ, NRUXZIJWFA"REMOVE "DNACYKHXTO, UHJTINBSHZ"REMOVE "QJJWDKQDFZ, WZTZLHZZTS"REMOVE "RDOVGZNJBM, ABFGWRDPRZ"REMOVE "NVQMOEBEIW, VLNPYGLOBD"REMOVE "UGRAGGMGEB, YDHQFMVZJL"REMOVE "YTRHDGVLAB, DOJRGEWEIC"REMOVE "JXERZOIUDZ, TEBWJGACLP"REMOVE "BIOWBQUETC, EGAMDKMWCT"REMOVE "CKZHAAKGEE, JAHYWKEFUO"REMOVE "RJFGFTCZES, WJQMKXUKRU"REMOVE "EAXIOAIPPL, QUCGEEQAQM"REMOVE "YFOEJSUYOS, UWZUFYQSJI"REMOVE "CZGZBKPJPX, YFBFWDBVOL"REMOVE "ZZXXTSQUNN, JRVEFVHJCX"REMOVE "RKRHMZONZK, RKWEYBOHYW"REMOVE "LPOTKYHPJR, AVUDDYYVTM"REMOVE "HPYXKVHIXE, TTLCYAXPDT"REMOVE "YSJIUPOCFT, RMUZHPLQLO"REMOVE "IFQLJOSACD, SRCVUCLZCO"REMOVE "DPMIOFTJOU, VGFPBHCMBY"REMOVE "XDOBWOVUGL, JVRPPCTLZT"REMOVE "ZISADEOXGZ, THUNIPYPOK"REMOVE "VHWAXJNFOB, EUVPDPRHNH"REMOVE "UDKYRAPGNM, WFCKNVRBJJ"REMOVE "HHCWYRNFOA, OTYYVTGBTU"REMOVE "OBJGZSQIAF, GJFUQGBNNR"REMOVE "KGNNJHPLDR, BVYMMDUYKE"REMOVE "TNNPTBHQBQ, JYCIVWWEIU"REMOVE "DGONLMMXMW, JEIEQCQUFI"REMOVE "KYZXBIGMYS, MUXSUDLWBB"REMOVE "OVEHBWOUTJ, FZCMEQQBGN"REMOVE "EPVYBJGTUI, MTBIWIEVWA"REMOVE "LGFUBOOGBV, RMLBIPNMAA"REMOVE "JXIMXHIGOX, WDUTEOEQJU"REMOVE "ZTPPWSRIOO, XWKDHTXHHM"REMOVE "APYYKRZORI, HYYUIEYAVB"REMOVE "BWXNKZTMZG, NSZAMYISFY"REMOVE "QWNEGVVIUR, UEZSEZSRPC"REMOVE "VSNTQMSTIJ, FJBTNVLGQI"REMOVE "PMTCBCQQHP, RMPFAJDTNG"REMOVE "RHGWZGNRCO, FQLXUSKUOL"REMOVE "JVWZQEOAHC, SNPJKPJQFO"REMOVE "MHLMXLAMAW, VRCXSEPUQL"REMOVE "MFSQFLOIQN, HUZGBJZWTR"REMOVE "EPFJDKEYQU, HHRJTSMNCJ"REMOVE "PNTDQSSPFE, WPWERVFRKB"REMOVE "NFOIMDTJWW, DTXNLRXCSW"REMOVE "KHZSMKZWAF, JZBNNIWPLJ"REMOVE "TDOOGZKFSM, PIBLUOJTIT"REMOVE "NJYUYZWIPR, EXCTBBOQZW"REMOVE "CIVHBWGXTX, PNJVPJOCFO"REMOVE "ZBQSLYIXAO, SERPRKHILI"REMOVE "VTATTOCQBK, WFIFGLBUZJ"REMOVE "SIUZZERURM, HFKNFKYURK"REMOVE "RFKFUWAFFR, VLJKSMJKYZ"REMOVE "DMADUFZOVZ, CZDOVISYWI"REMOVE "WHEXQNLLLD, NXRDFSJVNG"REMOVE "XOLWPOHLWF, JMWOWWVETM"REMOVE "MUFCVBHBVQ, GIEZUMASQQ"REMOVE "OIPSKDEBUL, ZEPUBAUJTD"REMOVE "OWJYWLJIBL, BJTOGSURBJ"REMOVE "ZRRPPQTFUK, QDHNNYIDDP"REMOVE "ZZNRJWCJUG, NNLHMGANFD"REMOVE "IBBDHITDEZ, AVAKKSTFVO"REMOVE "UZJRIHDOPZ, YQCAFRIFYY"REMOVE "XNVCJNMAIC, UOKJFWPDYH"REMOVE "ZSJTPVKGTY, GMCWTPCJNM"REMOVE "ITJDRRTVBY, GPBLDLBDGG"REMOVE "CVTEUZVBMF, VMHBHTXCEX"REMOVE "HRCQGXTHBP, QYJROBSVBC"REMOVE "QYRSPUEINJ, PCMCFHPYNX"REMOVE "QFMMJYVOPA, ZTRPELBJWW"REMOVE "UXLWOZDYHJ, FZKHAQNWKY"REMOVE "UCEWUZMFEK, TROEGQZGCR"REMOVE "CWUFQPWOOP, AXIYFZALNI"REMOVE "ZNEVRAOEKQ, OSKUZXSFCS"REMOVE "ADWAQVVERP, NUUOJOQTZQ"REMOVE "KHNTMTKUUG, ZVUBVZWVSQ"REMOVE "EFHQKYHYDP, GAFFKSDSYA"REMOVE "WAIZIGPFHL, XPSFCBCRIC"REMOVE "FHQNAMOJED, VJJEPQJQJT"REMOVE "JSLBNUSUAX, ZYZKSUQAJJ"REMOVE "XLSQRAIIWV, LARNBCGXWD"REMOVE "FLXKJSDLVT, GYZAKOICZD"REMOVE "HVQMSHDDVU, ELHSREFMUJ"REMOVE "KNHOKJNXCA, MIUGPJSPQV"REMOVE "NZWOSTRIRR, ZNPRLYOMUU"REMOVE "XZPNMCPULA, OVCGUVWPLY"REMOVE "VECEKYTOPS, CTZLTWOZPD"REMOVE "NJUMZGXXBU, ZPEDVEFVXD"REMOVE "DQULKVROSW, VDPAYLKDUP"REMOVE "UNQOJJEGLY, MJMJHIAYCO"REMOVE "RIAASVDETH, QOJHDOOPKR"REMOVE "JABDOGQTJS, BJFUYDGYOO"REMOVE "LXUAJTDVWU, MASJULZNGA"REMOVE "VUMZUWHFED, GYRYPUXNRQ"REMOVE "BFSEIZDBPR, VGZSZULWQN"REMOVE "YVPPRZKJVS, GFHJDSBRQT"REMOVE "JBAUAGVGHU, AFNQHLVDMY"REMOVE "XCDIUCXGXW, CJNAGEOBLE"REMOVE "ISVEXVAGXJ, KQHEIQJKSS"REMOVE "VHHDAPAJVI, NMXDSPQCRM"REMOVE "SGIBJWOTFN, ESAOOZMQOR"REMOVE "ULSPRTSPXA, OLZRQZHGBI"REMOVE "TPVWRCVNKZ, VDLLCUCJOH"REMOVE "MJLMCHZXAE, ERGQDUYIQR"REMOVE "CVZVSIBTFB, SOFIKVIBKG"REMOVE "PBBYSMFBWK, FHKLULMPLW"REMOVE "ZIJCJMBJKF, YUWFXRXEQT"REMOVE "WOSSCTSFWV, QNYJPNGLOX"REMOVE "ZKRWSBKBCC, NSAZSGZQBL"REMOVE "BJFWOUDWKD, GMNCXZTDUN"REMOVE "XJKXRYUDPL, IBSOINARYM"REMOVE "HSQSJZZEYD, AJHRIRTART"REMOVE "FLFOADMKQW, DMKZDNXOLZ"REMOVE "AVLNZFLKGW, HIVZWZJOCC"REMOVE "PWNDNYNKYJ, QTLQVKVZIE"REMOVE "OYRIRWZPWU, RVGJRHSYFD"REMOVE "REUSKAXIRH, YVSETEAWXY"REMOVE "IPYSXUTJLC, THECAZASKJ"REMOVE "IRPUNQFFBG, EYULPMCEWB"REMOVE "TWJHTSIEKS, KVXAQCJSFO"REMOVE "LQNLMBIFTM, VWBEEFTVBV"REMOVE "JAATKIEYXA, PFBHPBMDZY"REMOVE "TYNGLJXMSO, EJGYTRUFCH"REMOVE "AQMBXUQHHJ, UDGVOFLLSJ"REMOVE "FPAFEZERAT, RTIUAWOBLL"REMOVE "NDYFKUCUGP, BOZCNWHYWD"REMOVE "KORWGTOVZK, JLCVTYJRZE"REMOVE "SQKIWONJTB, DBEZTHWROH"REMOVE "VFEQZPRMHN, SQLWZQNOES"REMOVE "OBMQVRKXFM, GFLLIWBUYO"REMOVE "JBCRDVPBGM, SPCHFTBZTC"REMOVE "XVUGBIDTGE, ZKJXXNIGGN"REMOVE "BEHQNRJNGX, TBOLBHBXGC"REMOVE "OLYPXJPPLD, ZEASXDEDYH"REMOVE "UWIXLKOAXC, EIFJQWUXWF"REMOVE "NKCBLVIKQN, DYAXSSWYXZ"REMOVE "BPOFYTCLUD, PMRJUJZLAM"REMOVE "CNLUTBDHSY, IEQZUIFMFV"REMOVE "LCDTNPFSQL, OQSICZNOXH"REMOVE "BEJBMOXQLJ, LWKOYFOIFJ"REMOVE "ZIYSHGKZAV, PMRPLRCYDC"REMOVE "VBQOPCBXVJ, OPUKIQBQHH"REMOVE "FEUXLCGGQY, RLQDFKVOUC"REMOVE "GBPJYAUIIG, KEIPDUGCGZ"REMOVE "FJBZPXZPKF, YHGZZJXCJY"REMOVE "XNUWISESOE, FGYRWHTREP"REMOVE "HXUBKZLURI, NDIBWOGZKN"REMOVE "SCAFSUDNVN, OFRLXAUOEJ"REMOVE "KAKZCSQMHD, YFVLGUSIFY"REMOVE "UUTWAIZDWT, KHSHOMUGQW"REMOVE "CDMAOYFZNM, MXEESYVUBP"REMOVE "DAFEPWCIUM, YZPOJGXXXH"REMOVE "YNWYKJRROS, EOIENZXQXR"REMOVE "PBNKTABQII, RDFWTWUXSD"REMOVE "EIYIUCEYUR, QWBJQNRIPT"REMOVE "UFPKJMVKFC, JHSYQKSIEX"REMOVE "ORWFEHLOOY, LLDGFNAKJR"REMOVE "YAQMCBISNX, UXTHWXXYGF"REMOVE "LLYLWIUEFO, OHOFTDEEDA"REMOVE "BQTHHLAPDW, UNEGVJVCWM"REMOVE "EYQDLQLXPL, JWDUJXIQUP"REMOVE "GKFPMQLIII, XNGJXLLJHL"REMOVE "GRSKQDMSXX, MJXEHAKCHW"REMOVE "OQFKHGDFRO, MRZJBKEBMH"REMOVE "ABTVPMWIUF, CGHRNEAGJL"REMOVE "VMJPSENTBP, SNRYAWZVDU"REMOVE "RJITGPRSJP, RMEXSXIFRY"REMOVE "SIVXLGRQQD, OYGELBLWJD"REMOVE "RMKIDACUPR, XQCLWQCXDK"REMOVE "WWFUAFESQS, FJNYWFSNLI"REMOVE "AGHNIAGURV, ZEFBYIAPXF"REMOVE "UEGENGTGWD, IKHXZLDUVA"REMOVE "QEXZFYMKVO, YNGJYCNJUX"REMOVE "HDJKNTIGDH, EHATJTOBUZ"REMOVE "SYUUVALRAL, WIXLWVSNTM"REMOVE "JYDFDRHHIC, MLYHUNMOLA"REMOVE "UPBWOZSYCG, UFVTHEEDDQ"REMOVE "FNMHGFSRWK, VDMTTFHDGB"REMOVE "SHIXOLVBDP, WOMRJUWNBL"REMOVE "JLXICSNXKS, VQMHNELTCI"REMOVE "QCGZEWMHPK, GJYLZKXAEF"REMOVE "KWIMALVKPI, WXKOJNWZKA"REMOVE "IVWYPJAXIB, RQIWLIQHEA"REMOVE "GGQUPLWYQV, MLCWWQVJGX"REMOVE "DFJQBMIFUM, MPIEWXEVMW"REMOVE "RGHLCATKSE, ANRCUGFTIJ"REMOVE "DKJUBMFHFR, JJOYBHXVVK"REMOVE "AAAGKNWANI, FICLYGIGOM"REMOVE "XCZBTROONY, HNTZJYXGGC"REMOVE "IZLAQHIRYD, TMQJCUMWBO"REMOVE "DDZKNHMUZQ, DVDKGACEJR"REMOVE "XCUUUNWDXO, OVNKANNVWR"REMOVE "LFIJRQARCG, STXDBNWYAW"REMOVE "KONLNAPXIV, KMVNOXMCTK"REMOVE "XCQNPBRBNM, ROBPKEZNEJ"REMOVE "GUFOSKUNEU, GFZEUBZZSG"REMOVE "TBSYEMCGCH, HYYAHWUYSU"REMOVE "VDKIEHFAPK, CDBUMOPMYG"REMOVE "CYDLSGVMAH, MQFFLAFLHM"REMOVE "RUTHOUBZMU, DKZYWRHXGP"REMOVE "XGVVRQBWVM, FBJHFCIWRC"REMOVE "YWZGHCHLRN, FGSNAMRAUT"REMOVE "MXOXVSGGGG, VGRVWEHJTH"REMOVE "MPWAYKQLOF, NDUAFMTFIV"REMOVE "MJJJKQJRAB, RDPKLKAQWL"REMOVE "JSPHTQAEST, KRRZQVNJCL"REMOVE "GTWEHXYYCW, EOZODMEKOC"REMOVE "ENNOCAENNH, KPRRFOEHAB"REMOVE "HEGNHLUWKV, XVJRXPJKSE"REMOVE "GUUXCLQYRM, SVQISIJHCT"REMOVE "NPMGOWYVKU, YOZDXTXTFG"REMOVE "CGXCMRWDNJ, FONDQOXDYQ"REMOVE "BRWMQZNAHW, MYLRWGETSU"REMOVE "LFMNKNQLGI, PCARZZXNDO"REMOVE "XJNXMDDWQZ, NPAMZHNFWH"REMOVE "GIZBRCTEOG, NKLQZELPJB"REMOVE "OAJUQXIKZT, ERMZIZJZHN"REMOVE "WGFVFHDRJP, MHPVQQSJNO"REMOVE "VLFEWHSSTC, GJWQRTOSRJ"REMOVE "YGIEVUATPR, KJTVTNBYKC"REMOVE "NDKJZSWKVV, PZKOMZPPOZ"REMOVE "GUSSTLRCQZ, AAHMGEDDRL"REMOVE "MTWODDMAZK, CQGYULIWZY"REMOVE "CMZDBKOPSO, DKIPVHKRTC"REMOVE "QKCEQSZPNO, ECGSIDIAAK"REMOVE "FMKYNYVCSB, SRBKTYBXVV"REMOVE "RQDVXXJZAS, PLGLDWOVGK"REMOVE "DDANSADRZC, FPVUYWQVSZ"REMOVE "OIESHJPAEJ, ZJBGVHCBSL"REMOVE "SZKOKNTTJO, NONRAOFIZC"REMOVE "VTBVQRBBFK, HXWKIZVIFS"REMOVE "OKGOXYGKVB, XCMZEHIUXO"REMOVE "BROMKFDCGQ, HWGKPXGGME"REMOVE "DVFDMINMWD, JJOVRVJNXZ"REMOVE "FUDAXVCBKC, SCCNJGMMVH"REMOVE "RVAQSEIEAG, RLJNWNBEHX"REMOVE "TTLGLNFYUS, RWKIKMJCSF"REMOVE "IWITUVTUOA, WJAYETGEGL"REMOVE "WLWFJZPGDK, YDMTPRSAYQ"REMOVE "LNEKUYCTES, HCUTHPLPDB"REMOVE "BMWJBIQPTI, ZRBXSLLYRW"REMOVE "YKXIVDODLR, BPKXVQSKAV"REMOVE "WNHYJTUHIA, WAOJQUQAUW"REMOVE "RHMPLVFRCZ, TJTCHXHWNX"REMOVE "VSWRFHJQLH, XEQLOYOEUP"REMOVE "OGWJVHLRAN, QRJWLVUSPW"REMOVE "YKNWLVYEGW, ZFLRGRCDQJ"REMOVE "PFCMHYHWAH, LDYEBOPPLJ"REMOVE "TMSJEZMKJR, JIOIAPWUIL"REMOVE "HULTVIRHXH, FMAFMWYOHS"REMOVE "QTKFHJRFIS, MVTLEFJAGD"REMOVE "IBCRIJKFYG, JJIIYWOJPR"REMOVE "RCEGPGDRZI, MMDQFQPTHI"REMOVE "ADMKKRWHVP, KECZJYNLMY"REMOVE "LNGGRZHKPK, UEFWNJTFTK"REMOVE "ZVYASKFBQH, GNBWFQPHQN"REMOVE "BMBUBVVLVM, XMCMTRAGUR"REMOVE "BRMSYZDOPE, IQKNPSNEKA"REMOVE "QTQFBMJIBT, TYHJAXKLRZ"REMOVE "JDGXWXLHVF, WMCLZIJTEZ"REMOVE "TRBCSTAVLE, EHEEBHUUTK"REMOVE "NZJSNEGFOZ, SPQRZBFQJS"REMOVE "UGPXZUXPBE, ECTCQMTOGI"REMOVE "QZVYNYPQJU, VUVTYRJLUV"REMOVE "BVCNUUPHUJ, TBTTTWOEOU"REMOVE "MUJYPJVEZV, YEUSUFWPSX"REMOVE "YQZQTVNFEZ, GMCTPMQMQE"REMOVE "QJGDOEIKHV, VIQFZTYHAP"REMOVE "ITNZVHKETA, TTIENEMXXL"REMOVE "NOJZGKNHNS, MNAVWWXGWU"REMOVE "TZVJUKVJTR, IGCPGPQYGD"REMOVE "JXTBEVZOUI, UYMAQMBZZN"REMOVE "DVHYZOKSCO, EPOASLTBCG"REMOVE "TJMQXCWPDA, JSVIWNPRSF"REMOVE "WYPSKCTJBR, KCLIVRPUWE"REMOVE "MYWOZYIZQI, FGXPMPQITB"REMOVE "EGXJYMYUGD, FUKXEDPTOH"REMOVE "VJQJEXDZNY, DAKCSLFCCH"REMOVE "MFHYCEPMZI, HERQJFSCLL"REMOVE "GRANQDINXE, JLTCVUZCEY"REMOVE "IFGUKSJBGV, HEGZDNJYRN"REMOVE "DTRYLKLEPP, HLBZSELQPT"REMOVE "DYKJYIQUVT, FFVXUOZORZ"REMOVE "ULUFTDNYVB, JNHIUMZLGB"REMOVE "SFVMMQLAEW, SQDLJSEKHM"REMOVE "ESPFWOBCWC, AXFDWMSQSL"REMOVE "VCMSVFNBDD, UJLBGZKAZH"REMOVE "JMHBMNJHJW, EVKNJEEAWI"REMOVE "CKCKJQEGMC, SVOUWYXUGJ"REMOVE "LBUBEUBFXT, XINXCHRMOR"REMOVE "UQQPGLYHNS, YQZEHYDOKP"REMOVE "DIYLCSCSGQ, DUAVYKFNKX"REMOVE "JOXYIBGNPD, KWDCYCITMV"REMOVE "GIJUILWUHI, WNUJQJLPLS"REMOVE "QTSPKRKAPR, ZJRBFDFLHX"REMOVE "KZKSDHCDYS, ZJNDIOWVAY"REMOVE "TRTGQYXLPI, CVHRIUEHSI"REMOVE "FCUWZXWYFS, NKNTRZSQOB"REMOVE "THZEGVUFKA, UCQSPGCIYZ"REMOVE "TRWRQKLPAD, HQEUESXWCF"REMOVE "ZJLKYCEOLJ, FAEKVYAGVJ"REMOVE "TJSLNFZSOT, MMYFYAASTB"REMOVE "YTDBFUOKYN, RRIGFCKVPR"REMOVE "OBGSNWGMEQ, GPJZIKIXFE"REMOVE "SYGHHMZXDK, FQKOLRCFZT"REMOVE "SUAKMKMGMU, AGSRQAWLTT"REMOVE "FCTPNJQNIS, RGONINBQJN"REMOVE "UBRYQVHWQJ, TYUHGWOGGQ"REMOVE "CAJUXGNYWO, HDPJBYXADN"REMOVE "PNHVHYFDHW, OTSONYSMLT"REMOVE "UFPDRVWLAB, UFLOWFIBTJ"REMOVE "TVAHSJAEAS, PNSWFLWVVL"REMOVE "JQLHLTRJHR, HRCMSZYQSU"REMOVE "ORGKFTSZYD, RJWHTABFKH"REMOVE "RXRVJNORQF, NDAZYMAOLV"REMOVE "VWKQYASPTM, TFEGTTOIDR"REMOVE "GOCAXJDTFO, AFHRUHJNLA"REMOVE "ERPSYJPYQJ, BNCTBGWJHL"REMOVE "LCHFGDDREO, VSWXUMJVIR"REMOVE "POBUZHXHJM, LUPMFZGZEL"REMOVE "BCWAMZEFJS, NYACFECYKM"REMOVE "LSAJYDZHIH, WXRWWZBOFC"REMOVE "HTOXKXFWUP, KVKIBBVNCB"REMOVE "GYAALZWCRC, HFQKVXZRRV"REMOVE "KZCQYIENVZ, NDRTXTQDPR"REMOVE "VUWBVBOJIM, UVMJRQQQUM"REMOVE "PEZYVEZDPP, UOQKATBORT"REMOVE "FCVSESZLDU, FSOZMRGGCD"REMOVE "VVNEQCCPDY, SDOUIZFZZE"REMOVE "PKVGTCQWIK, MVTJQOSAGE"REMOVE "KLFWJDADHL, WZZTCCSYMZ"REMOVE "NZECTUXNQC, QPFGOMSTAP"REMOVE "RNXEVIJONI, BNBHLLNHCH"REMOVE "WFZSNSBMWO, VJAXSZBLMW"REMOVE "THOCRMMCXB, KGXUJQNJCI"REMOVE "GGKXDOVUNA, HSVBXAAHYZ"REMOVE "BKQANPEEBS, TLYTUVQIVF"REMOVE "GVWRMVSWJY, SJDJJUUHTO"REMOVE "TVUGWTXQWI, OWKJHCEWXG"REMOVE "UBKIUEOZWP, OXWUZROZBI"REMOVE "DVFJUKFXKG, JWIAXMHTZW"REMOVE "YTHGBXNRRR, MBSMOMRYUK"REMOVE "TJCARDSRXC, IOXFTMKZQD"REMOVE "LDCKFKPPWF, LEUFMZCPKC"REMOVE "HXBCKDCDHK, LXREBACTQB"REMOVE "KBEHQSFLFR, CKHGENTSHP"REMOVE "ANLREKUXRH, QZEVIJMWZS"REMOVE "NHHOZLDPGY, VXWVHCMACY"REMOVE "PIPJVYKYSC, VRUANWBAQI"REMOVE "WXGTDIEAIH, HQSDAKXNUB"REMOVE "QJJZPGSZZF, IHAEPIVXPO"REMOVE "AHBPFJTBLD, QDTAANXQGY"REMOVE "VGOLQDIVFK, PMQXLDAXPE"REMOVE "LUKHOQHFRB, SURNWSEKDH"REMOVE "YNPJRFITJP, VYDXQKUITI"REMOVE "PYXNDMCRJO, HEQZNDOTNB"REMOVE "RZVWJCQLVT, VKYYQGKQIF"REMOVE "OMAKKLATAZ, CDZKSRZZQV"REMOVE "KYUCFTYSLG, CGDZYNDGFF"REMOVE "KCYJQIRGCX, FIDISFNKGQ"REMOVE "IQRJLVXQYX, SRAMQVTBOX"REMOVE "VJXEPRNEBI, NVQEPXCMXN"REMOVE "NRHIGCBLXI, UAZOOMAGCN"REMOVE "CSEXTHHAPT, TWJGRMDWLH"REMOVE "XDDWYHOPNC, RFBGPGGMPQ"REMOVE "EIVVNYWKWR, SCKOPGFTKW"REMOVE "XEGKJSNJBT, CQNAOPQNRC"REMOVE "HBOTFWBQAW, QYVXWHAFYI"REMOVE "ERWFDYSEPZ, KAMRULYAXN"REMOVE "GIRABKZYXT, BUYLRNSHUH"REMOVE "HUJBEHOOQY, RSJOHDUPEF"REMOVE "WSMFVFAGBN, JTBWIMUOKJ"REMOVE "EBOGJCCCXM, XQUIQLNRNB"REMOVE "PBMJOFSREA, FFMVEMGMQA"REMOVE "CAPBSUEDFD, LVWOSEIYUR"REMOVE "CMZLTNSOLM, QZFBYSZKXA"REMOVE "FDUXKXPMEU, YJRYAYGRUL"REMOVE "SEWIKCUWIA, HTSFQQKJPG"REMOVE "KISDEXIWJY, DETZNFLHVP"REMOVE "SFVHKDXECZ, XQBXVSLJNW"REMOVE "HXYSRWGHNM, ARFZWNOMSV"REMOVE "WDYUYKFUAE, QLBMQMSOKJ"REMOVE "VGZWUINWFP, YKPUPWJLAE"REMOVE "XENIJPFMXI, YULFRILRJC"REMOVE "MIPYIPQEWD, KPFUZZTEWY"REMOVE "XEEIEUMXOJ, GVZOCBHRHA"REMOVE "NETACHDTFA, GLNGJAASUY"REMOVE "LCEGKRPEXB, AISDUVPMGR"REMOVE "RYGGVDXUOY, LQEIPKTDRD"REMOVE "HFYRXLCTGZ, FISXCQLFVV"REMOVE "DASYYFBSOF, NZJWBXEIKX"REMOVE "IPIPTCHUAX, XJPHWWWHTV"REMOVE "JCADQLLWPW, DCQUTLTXXV"REMOVE "NKTNYRUWJH, TBPBBYRMRU"REMOVE "MCAJKJENNY, JTZKWPLKKN"REMOVE "PNLBTVHIHK, MUOFRAUVZZ"REMOVE "AKOVQJFHJK, KYIQESWORN"REMOVE "VWYHUEKDSY, JAINHJOFCJ"REMOVE "MYNHMEAAPC, KDYOSBNJJZ"REMOVE "FYYUCXYAYY, ZGQIOWPJRS"REMOVE "KHJYDOWBOS, ACDIKUHDUD"REMOVE "DXTDLAGGNY, VYYOGCOWAQ"REMOVE "ZUFOXMCETC, CXLRWLHCHO"REMOVE "ZVKSURVMRT, AYOJGXCDAK"REMOVE "LKMHUSXTMW, LEIYNUTQMZ"REMOVE "RMGGPWZMPH, XJPIATWUJL"REMOVE "NOGTQWOZEO, MBMROULLHZ"REMOVE "ZFQMRPCLPA, CQFVBBBAKR"REMOVE "PSVCSQDBRX, DQMJKUEWYK"REMOVE "RPHRWCHSBU, MACVMMBHOV"REMOVE "ALDQKYEOWZ, XLBHPEBJQV"REMOVE "ELJKRHHMOI, EVSURZQPYU"REMOVE "CZAKDUDEDZ, RNKFIEDXOF"REMOVE "UXAQAOUTHN, NRNTWYMCII"REMOVE "QMVYCXYSMG, FEUQJTGSRL"REMOVE "BAUEIBMMQN, PNNLDPFGGB"REMOVE "DBSYIABCCZ, GDJFNQHGDQ"REMOVE "DIPZQAGIGO, QFLUFWPNCX"REMOVE "PBFJRAUTIW, AUMWICKOUV"REMOVE "PPGGYUDBUC, TCNDDGMMRR"REMOVE "DESFLAIQVY, XWPRQBLVLO"REMOVE "YYKNEJIWNJ, KPBLWLGPFC"REMOVE "UBLZLNTLAB, IZPJMTWOJT"REMOVE "YBDEAKXQWJ, CNAZUVUOXN"REMOVE "TPVEOEMAAJ, GWUMNRGWWG"REMOVE "TXIKGYHTVU, OIASHCVEZP"REMOVE "LFLHDRAFIE, KSTZKLAUPQ"REMOVE "HQRNROKTSR, VSGUMSGARQ"REMOVE "XGSSMKJBQT, HUNFILXOMH"REMOVE "LOTBBLFXPF, YRLIMZUDQQ"REMOVE "SWDQZHIGIO, OYKBAYWCSS"REMOVE "ZWMPJBTKUD, HQRLGXWXSV"REMOVE "QHWOPJWEUL, OMHSEZVUCZ"REMOVE "KPSMSKASYC, TNTYFFVSMS"REMOVE "QPGCMTJSYU, CVCPNVCWAM"REMOVE "IBXTMQUZEM, QPPSXEEYDG"REMOVE "VCPEYTRCJQ, IYEIRDXHDI"REMOVE "TEVBIGDHYE, AASEMJRTEM"REMOVE "UTWQWZBRTR, HUWJECTIOZ"REMOVE "QTYVNEKQEO, QRJTRPNVKE"REMOVE "LTQYQUBDHM, HURPUXWEUW"REMOVE "QQBYKECYJX, OWNMRMKWZO"REMOVE "BFBSQRODRO, RISPOMAZPL"REMOVE "XFCOMRBVIQ, QONUCGRFJZ"REMOVE "KEMEODHOSK, ZLMHXTTTPU"REMOVE "AEWZLJREOM, WFCIMXTRQE"REMOVE "MUTJZNLCYY, JKUEPIGTGP"REMOVE "FLOKFEYQNQ, COPRSTSINB"REMOVE "RATKFZONYZ, QJYJNBROQG"REMOVE "IJZDGKECAF, ESNFRMIHZF"REMOVE "QPDRCLIXPV, TWFPKHZZWJ"REMOVE "ZRXQUZGOWH, GMHLBFZXLP"REMOVE "KHRNZIMGYU, MTDARLKENN"REMOVE "JJPZSAOKXD, LGOHMAWNHQ"REMOVE "HGQQEJBDUE, ZJYOIANYXD"REMOVE "ZJIFMLUIVE, CFYICNRYGK"REMOVE "XZIHIPPUIN, TDOYJNBUGH"REMOVE "WPAQCZUXWY, UFUYBNYKPS"REMOVE "LOJUPGMACT, BOUBZWLHRK"REMOVE "BBTWFZKRRE, AIFUJMEGIE"REMOVE "GPCOSOONOV, NOQQTIHIVI"REMOVE "RPKZTTNSWN, NSUXZENIZE"REMOVE "ZVLNIPCBPP, BTYCGNOKOD"REMOVE "NKLNSFJLKX, XOAFNYQFPH"REMOVE "SZBAOJCBAX, GPPEPITRKD"REMOVE "RUOQVAYMZI, QMYUJPMLLX"REMOVE "VOPIYJKBKL, CROVWWVVSQ"REMOVE "FPUVPZHETV, NYUIFOZXBH"REMOVE "IUGFHNEMCL, IGJVFOZJWV"REMOVE "IDESGQJZUD, PYMWOHDHGO"REMOVE "IMNJVJVNCO, DZGNBOIUJR"REMOVE "JILPURVYKR, YQWASSVMYV"REMOVE "MCOCQZLRVH, LJJZIWGADY"REMOVE "XTJKFFHNGH, AMXSJLJJQE"REMOVE "RDRCNBKVQK, WCMBJOXNSH"REMOVE "TGFFCCFJAD, EVEHMVDCLB"REMOVE "CWQQJGOCBW, ZTDWUICLGK"REMOVE "KBHAUPFLFD, ESRFSQUCDY"REMOVE "BNDRHDAYNA, XJAOYCKLDW"REMOVE "GUBPDHDJEF, FAKWZPRCBQ"REMOVE "KBUYGHTTOD, NJMXIRSDVQ"REMOVE "QUSECCNHZD, RNNOHKIIEL"REMOVE "NTFBSJBEOV, IFEFUMEDLO"REMOVE "WMAQACLJAX, FITQXBGFIY"REMOVE "LCLIPOZOZZ, BKJEYAMIBE"REMOVE "MJPWKGIUYO, TTRDPWELDS"REMOVE "VCNSXSUVPW, GGXTDAJHGW"REMOVE "KWQOAFKAAB, VBAVQAQGMA"REMOVE "OHVEJVTTHK, AYARATKIKP"REMOVE "PSFHTGOGRC, UXVHLDFJJL"REMOVE "RZCYIPBARB, XXWUFJKKAO"REMOVE "RVFXRXMXWZ, XDQITJJDSS"REMOVE "WTUMHEDQSN, ZQDQUNZNLZ"REMOVE "SITUEMYJHI, TNGAXKETWG"REMOVE "LZOEFBDQJH, VJHTNVNEOL"REMOVE "SLMUPEVINY, AWCMJZMZHC"REMOVE "DTERUXOGHL, AVHRQGWGYM"REMOVE "FALXCMUVUS, TYLISRAPUX"REMOVE "YCUGDFFSHI, XZCCUSRKWD"REMOVE "JJWLOFDRDV, HKJCDYBNYC"REMOVE "JAMPXGLLXC, CEZULFYKYN"REMOVE "OFNILGYUWB, FWPTEVZDHN"REMOVE "KCMARWAJRZ, AYOKVXLNKO"REMOVE "IIKEICYAFS, JIPSUBYGDN"REMOVE "GKMTCMVAPW, UPVWEHJLUI"REMOVE "VCAQNWCBJN, GVZAHRSIXZ"REMOVE "WRYNQQOUCC, DJJSAXTQRE"REMOVE "IHKDYWGLXG, VIXPMNAEBP"PRINTRPRINTEXITGoodbye.

C:\Users\apoe\Desktop\Grading Folder>exit

It's not properly reading the PG5.in file.  This looks more like PG4.

By the way, for you I'm not worried about late points, especially in
light of the fact that you're implementing inherited objects.  So don't
worry about meeting a resubmit deadline.

30/50.
