Listing Comparable.h...

//Andrew A. Poe, Professor, CS201-01-16F
//Northern Michigan University (Marquette Co, MI)
//Comparable definitions

#ifndef _COMPARABLE_
#define _COMPARABLE_

class Comparable {
public:
 virtual int cmp (Comparable *c) = 0;
   // if a < b, a->cmp (b) should return a negative number
   // if a > b, a->cmp (b) should return a positive number
   // if a = b, a->cmp (b) should return zero

 virtual void print () = 0;
  //prints the data stored in this object
};


#endif


Listing ComparableArray.cpp...

//Britney Reese, CS 201 01 16f
//This is the class for an array of type Comparable; it can hold both
//ComparableInts and ComparableStinrgs.
#include "Comparable.h"
#include "ComparableArray.h"
#include "ComparableInt.h"

ComparableArray::ComparableArray(int s) {
	sz = s;
	CA = new Comparable * [sz];
}

Comparable * ComparableArray::smallest () {
	Comparable * A = CA[0];
	//Loops through the array and finds the smallest entry.
	for (int i = 0; i < sz; i++) {
		if (CA[i]->cmp(A) < 0) {
			A = CA[i];
		}
	}
	return A;
}

Comparable * ComparableArray::largest () {
	Comparable * A = CA[0];
	//Loops through the array and finds the largest entry.
	for (int i = 0; i < sz; i++) {
		if (CA[i]->cmp(A) > 0) {
			A = CA[i];
		}
	}
	return A;
}

void ComparableArray::seti (int i, Comparable *c) {
	CA[i] = c;
}

ComparableArray::~ComparableArray () {
	for (int i = 0; i < sz; i++) {
		delete CA[i];
	}
}


Listing ComparableArray.h...

//Andrew A. Poe, Professor, CS201-01-16F
//Northern Michigan University (Marquette Co, MI)
//ComparableArray definitions

#ifndef _COMPARABLEARRAY_
#define _COMPARABLEARRAY_

#include "Comparable.h"

class Comparable;
class ComparableArray {
private:
 Comparable **CA;  // Array of Comparable pointers
 int sz; // number of elements in array
public:
 ComparableArray (int s); // initializes array with size s
 ~ComparableArray (); //destroys array and everything in it
 Comparable * smallest (); //retrieves smallest item in array
 Comparable * largest (); //retrieves largest item in array
 void seti (int i,Comparable *c); //puts c in item i of array

};

#endif


Listing ComparableInt.cpp...

//Britney Reese, CS 201 01 16f
//This is a Comparable that holds an int.

#include "ComparableInt.h"
#include "Comparable.h"
#include <iostream>
using namespace std;

ComparableInt::ComparableInt (int I) {
	i = I;
}

int ComparableInt::cmp (Comparable *c) {
	//Simple integer comparison.
	ComparableInt *A = (ComparableInt *)c;
	if (i == A->geti()) {
		return 0;
	} else if (i > A->geti()) {
		return 1;
	} else {
		return -1;
	}
}

void ComparableInt::print () {
	cout << i;
}

int ComparableInt::geti() {
	return i;
}


Listing ComparableInt.h...

//Andrew A. Poe, Professor, CS201-01-16F
//Northern Michigan University (Marquette Co, MI)
//ComparableInt definitions

#ifndef _COMPARABLEINT_
#define _COMPARABLEINT_

#include "Comparable.h"

class Comparable;
class ComparableInt:public Comparable {
private:
 int i; //The integer stored in the object

public:
 ComparableInt (int I); //Constructor
 virtual int cmp (Comparable *c); //Inherited from Comparable
 virtual void print (); //Inherited from Comparable
 int geti(); //retrieves integer
};

#endif


Listing ComparableString.cpp...

//Britney Reese, CS 201 01 16f
//This is a Comparable that holds a string.

#include "ComparableString.h"
#include "ComparableInt.h"
#include <iostream>
using namespace std;

ComparableString::ComparableString (string S) {
	s = S;
}

int ComparableString::cmp (Comparable *c) {
	ComparableString *A = (ComparableString *)c;
	string myString = s;
	string compString = A->gets();
	//Get the uppercase version of my string and the string
	//being compared for comparison.
	for (int i = 0; i < myString.length(); i++) {
		if (myString[i] >= 'a' && myString[i] <= 'z') {
			myString[i] = (char)((int)myString[i]-32);
		}
	}
	for (int i = 0; i < compString.length(); i++) {
		if (compString[i] >= 'a' && compString[i] <= 'z') {
			compString[i] = (char)((int)compString[i]-32);
		}
	}
	//Simple string comparison.
	if (myString == compString) {
		return 0;
	} else if (myString > compString) {
		return 1;
	} else {
		return -1;
	}
}

void ComparableString::print () {
	cout << s;
}

string ComparableString::gets() {
	return s;
}


Listing ComparableString.h...

//Andrew A. Poe, Professor, CS201-01-16F
//Northern Michigan University (Marquette Co, MI)
//ComparableString definitions

#ifndef _COMPARABLESTRING_
#define _COMPARABLESTRING_

#include <string>
#include "Comparable.h"
using namespace std;

class Comparable;
class ComparableString:public Comparable {
private:
 string s; //String stored in object
public:
 ComparableString (string S); //Constructor
 virtual int cmp (Comparable *c); //Inherited from Comparable
 virtual void print (); //Inherited from Comparable
 string gets(); //Retrieves string
};

#endif


Listing PG5.cpp...

//Britney Reese, CS 201 01 16f
//Main method of the program, asks the user for two arrays,
//one of int and the other of string, and gives the largest and
//smallest of the respective arrays.

#include <iostream>
#include "PG5.h"
#include "ComparableArray.h"
#include "ComparableInt.h"
#include "ComparableString.h"

using namespace std;

int main (int argc, char **argv) {
	string a;
	cout << "How many integers? ";
	int intArrLen;
	cin >> intArrLen;
	getline(cin, a);
	cout << intArrLen << endl;
	//Create a new ComparableArray and add entries to it.
	ComparableArray* IA = new ComparableArray(intArrLen);
	for (int i = 0; i < intArrLen; i++) {
		int nw;
		cout << "Enter an integer: ";
		cin >> nw;
		getline(cin, a);
		cout << nw << endl;
		IA->seti(i, new ComparableInt(nw));
	}
	//Print the largest and smallest values in that array.
	cout << endl << "The largest integer is ";
	IA->largest()->print();
	cout << " and the smallest is ";
	IA->smallest()->print();
	cout << "." << endl << endl;

	//Repeat the above code except using ComparableString to
	//show the versatility of objects.
	cout << "How many strings? ";
	int stringArrLen;
	cin >> stringArrLen;
	getline(cin, a);
	cout << stringArrLen << endl;
	ComparableArray* SA = new ComparableArray(stringArrLen);
	for (int i = 0; i < stringArrLen; i++) {
		string nw;
		cout << "Enter a string: ";
		getline(cin, nw);
		cout << nw << endl;
		SA->seti(i, new ComparableString(nw));
	}
	cout << endl << "The largest string is ";
	SA->largest()->print();
	cout << " and the smallest is ";
	SA->smallest()->print();
	cout << "." << endl << endl;
}


Listing PG5.h...

//Andrew A. Poe, Professor, CS201-01-15F
//Northern Michigan University (Marquette Co, MI)
//PG5 main definition

#ifndef _PG5_
#define _PG5_

int main (int argc, char **argv); //the main method

#endif


Microsoft Windows [Version 6.1.7601]
Copyright (c) 2009 Microsoft Corporation.  All rights reserved.

C:\Users\apoe\Desktop\Grading Folder>copy /y C:\Grading\Classes\CS201-01-16F\PG5\PG5soln\*.h .
C:\Grading\Classes\CS201-01-16F\PG5\PG5soln\Comparable.h
C:\Grading\Classes\CS201-01-16F\PG5\PG5soln\ComparableArray.h
C:\Grading\Classes\CS201-01-16F\PG5\PG5soln\ComparableInt.h
C:\Grading\Classes\CS201-01-16F\PG5\PG5soln\ComparableString.h
C:\Grading\Classes\CS201-01-16F\PG5\PG5soln\PG5.h
        5 file(s) copied.

C:\Users\apoe\Desktop\Grading Folder>cppcompileall PG5.exe
Microsoft Windows [Version 6.1.7601]
Copyright (c) 2009 Microsoft Corporation.  All rights reserved.

C:\Users\apoe\Desktop\Grading Folder>"C:\Program Files (x86)\Microsoft Visual Studio 10.0\VC\vcvarsall.bat" x86
Setting environment for using Microsoft Visual Studio 2010 x86 tools.

C:\Users\apoe\Desktop\Grading Folder>cl /Tp "ComparableArray.cpp" /Tp "ComparableInt.cpp" /Tp "ComparableString.cpp" /Tp "PG5.cpp" /O2 /EHsc /W2 /Za /link /OUT:PG5.exe
ComparableArray.cpp
ComparableInt.cpp
ComparableString.cpp
PG5.cpp
Generating Code...
Microsoft (R) Incremental Linker Version 10.00.40219.01
Copyright (C) Microsoft Corporation.  All rights reserved.

/out:ComparableArray.exe 
/OUT:PG5.exe 
ComparableArray.obj 
ComparableInt.obj 
ComparableString.obj 
PG5.obj 

C:\Users\apoe\Desktop\Grading Folder>Microsoft (R) 32-bit C/C++ Optimizing Compiler Version 16.00.40219.01 for 80x86
Copyright (C) Microsoft Corporation.  All rights reserved.


C:\Users\apoe\Desktop\Grading Folder>PG5.exe < "C:\Grading\Classes\CS201-01-16F\PG5\PG5-1.in"
How many integers? 10
Enter an integer: 3
Enter an integer: 7
Enter an integer: 1
Enter an integer: 2
Enter an integer: 6
Enter an integer: 3
Enter an integer: 6
Enter an integer: 2
Enter an integer: 4
Enter an integer: 2

The largest integer is 7 and the smallest is 1.

How many strings? 1
Enter a string: Hi THERE!

The largest string is Hi THERE! and the smallest is Hi THERE!.


C:\Users\apoe\Desktop\Grading Folder>PG5.exe < "C:\Grading\Classes\CS201-01-16F\PG5\PG5-2.in"
How many integers? 2
Enter an integer: -2
Enter an integer: -1

The largest integer is -1 and the smallest is -2.

How many strings? 26
Enter a string: q
Enter a string: w
Enter a string: e
Enter a string: r
Enter a string: t
Enter a string: y
Enter a string: u
Enter a string: i
Enter a string: o
Enter a string: p
Enter a string: a
Enter a string: s
Enter a string: d
Enter a string: f
Enter a string: g
Enter a string: h
Enter a string: j
Enter a string: k
Enter a string: l
Enter a string: Z
Enter a string: X
Enter a string: C
Enter a string: V
Enter a string: B
Enter a string: N
Enter a string: M

The largest string is Z and the smallest is a.


C:\Users\apoe\Desktop\Grading Folder>exit

50/50.
