Listing SimpleLexer.h...

#ifndef SIMPLELEXER_H
#define SIMPLELEXER_H

#include <iostream>
#include <cstdlib>
#include <string>
#include <sstream>
using namespace std;

int countchar (string s, char a);
string stringify (int a);

#endif


Listing SimpleLexer.l...

%{

#include "SimpleLexer.h"

int linenumber = 1;

%}

int (\-|\+)?[0-9]+
float (\-|\+)?[0-9]+(\.[0-9]+)?((e|E)(\-|\+)?[0-9]+)?
variable [A-Za-z]([A-Za-z]|[0-9])*
string \"([^\n\"])*\"
beginning_comment \/\/.*
wrap_comment \/\*((\*(\**|([^\*/][^\*]*\*))*)|([^\*]([^\*]*|(\*+[^\*/]))*\**))\*\/
delimiter [\ \t\r\n]

%%

(\r\n|\n\r|\r|\n) {linenumber++;}

{int}/{delimiter}	{cout << "line "+stringify(linenumber)+": integer "+yytext << endl;}
{float}/{delimiter}	{cout << "line "+stringify(linenumber)+": float "+yytext << endl;}
{variable}/{delimiter}	{cout << "line "+stringify(linenumber)+": variable "+yytext << endl;}
{string}/{delimiter}	{cout << "line "+stringify(linenumber)+": string "+yytext << endl;}
{wrap_comment}|{beginning_comment}/{delimiter}	{linenumber+=countchar(yytext, '\n');}

[\ \t]	{}

[^\ \t\r\n]*/{delimiter} {cout << "line "+stringify(linenumber)+": Error \"" << yytext << "\"" << endl;}

%%

int yywrap () {
	return 1;
}

int main () {
	yylex();
}

int countchar (string s, char a) {
	int count = 0;
	for (int i = 0; i < s.size(); i++)
		if (s[i] == a) count++;
	return count;
}

string stringify (int a) {
	stringstream ss;
	ss << a;
	string str = ss.str();
	return str;
}


Listing makefile...

CSW=	-O3
LexFile=	SimpleLexer.l
Lexer=	HW2

all:
	make $(Lexer)

$(Lexer):	lex.yy.c makefile
	g++ lex.yy.c -o $(Lexer) $(CSW); rm lex.yy.c

lex.yy.c:	$(LexFile) makefile
	flex $(LexFile)

clean:
	touch $(LexFile); make



make HW2
make[1]: Entering directory `/home/apoe/Desktop/Grading Folder'
flex SimpleLexer.l
g++ lex.yy.c -o HW2 -O3; rm lex.yy.c
make[1]: Leaving directory `/home/apoe/Desktop/Grading Folder'
line 1: integer 43
line 1: integer +43
line 1: integer -43
line 2: float 372.0
line 2: float +372.0
line 2: float -372.0
line 3: float 4e6
line 3: float +4e6
line 3: float -4e6
line 3: float 4e+6
line 3: float +4e+6
line 3: float -4e+6
line 3: float 4e-6
line 3: float +4e-6
line 3: float -4e-6
line 4: float 56.34e4
line 4: float +56.34e4
line 4: float -56.34e4
line 7: string "Here is a string."
line 9: string "Here are"
line 9: string "two strings."
line 11: string "A string containing "
line 11: variable results
line 11: variable in
line 11: Error "error.""
line 13: variable Thisisanextremelylongvariablename
line 14: Error "Thisisanerrorthatlooks%somewhatlikeavariablename"
line 15: variable Fine44
line 16: variable Fine44fine
line 17: Error "44fine"
line 19: variable stuff
line 21: variable line
line 25: variable line
line 29: variable findthis
line 31: variable line

50/50.

